projeto/hardware.vcd
$comment
Copyright (C) 1991-2010 Altera Corporation
Your use of Altera Corporation's design tools, logic functions 
and other software and tools, and its AMPP partner logic 
functions, and any output files from any of the foregoing 
(including device programming or simulation files), and any 
associated documentation or information are expressly subject 
to the terms and conditions of the Altera Program License 
Subscription Agreement, Altera MegaCore Function License 
Agreement, or other applicable license agreement, including, 
without limitation, that your use is for the sole purpose of 
programming logic devices manufactured by Altera and sold by 
Altera or its authorized distributors.  Please refer to the 
applicable agreement for further details.
$end

$date 
  05/04/2018 23:48:17 
$end
$version 
 QUARTUS_VCD_EXPORT 1.0 
$end
$timescale
  1 ps
$end
$scope module cpu $end
$var reg 1 ! clock $end
$var reg 32 " PC[31:0] $end
$var reg 7 # Estado[6:0] $end
$var reg 32 $ Alu[31:0] $end
$var reg 32 % WriteDataMem[31:0] $end
$var reg 32 & WriteDataReg[31:0] $end
$var reg 5 ' WriteRegister[4:0] $end
$var reg 32 ( Address[31:0] $end
$var reg 32 ) EntradaULA1[31:0] $end
$var reg 32 * EntradaULA2[31:0] $end
$var reg 32 + AluOut[31:0] $end
$var reg 32 , EPCOut[31:0] $end
$var reg 32 - EntradaRegDeslocamento[31:0] $end
$var reg 32 . EscritaMem[31:0] $end
$var reg 2 / EscritaSelection[1:0] $end
$var reg 1 0 ExceptionSelector $end
$var reg 1 1 IRWrite $end
$var reg 1 2 IouD $end
$var reg 1 3 LoadMult $end
$var reg 32 4 MDR[31:0] $end
$var reg 32 5 MemData[31:0] $end
$var reg 3 6 MemParaReg[2:0] $end
$var reg 1 7 RegWrite $end
$var reg 32 8 SaidaA[31:0] $end
$var reg 32 9 extensorEShift[31:0] $end
$var reg 1 : reset $end
$var reg 64 ; resultado_mult[63:0] $end
$var reg 1 < wr $end
$upscope $end
$enddefinitions $end
#0
$dumpvars
0!
b0 "
b0 #
b100 $
b0 %
b0 &
b0 '
b0 (
b0 )
b100 *
b0 +
b0 ,
b0 -
b0 .
b0 /
00
01
02
03
b0 4
b0 5
b0 6
07
b0 8
b0 9
0:
b0 ;
0<
$end
#5000
1!
b100 "
b1 #
b0 $
b100 &
b100 (
b100 )
b0 *
b100 +
#10000
0!
#15000
1!
b10 #
b1000 $
b100 *
11
b111100000010000000000000000101 5
#20000
0!
#25000
1!
b11 #
b0 $
b1000 '
b0 )
b0 *
b101 -
01
b10000100000010000011 5
#30000
0!
#35000
1!
b11010 #
b101 $
b101 *
b101 9
#40000
0!
#45000
1!
b11011 #
b10100 $
b101 &
b10100 *
b101 +
17
b10100 9
#50000
0!
#55000
1!
b0 #
b1000 $
b100 )
b100 *
07
#60000
0!
#65000
1!
b1000 "
b1 #
b0 $
b1000 &
b1000 (
b1000 )
b0 *
b1000 +
#70000
0!
#75000
1!
b10 #
b1100 $
b100 *
11
#80000
0!
#85000
1!
b11 #
b0 $
b0 *
b100000010000011 -
01
b100000000010010000000000000011 5
#90000
0!
#95000
1!
b111001 #
b10100 $
b0 )
b10100 *
17
#100000
0!
#105000
1!
b111010 #
b1010000 $
b101 %
b10100 &
b1010000 *
b10100 +
b101 -
b101 .
07
b1010000 9
#110000
0!
#115000
1!
b111011 #
b101 $
b1010000 &
b101 *
b1010000 +
b100000010000011 -
b101 9
#120000
0!
#125000
1!
b111100 #
b1 $
b1 &
b1 *
b101 +
b10 6
17
b1 9
#130000
0!
#135000
1!
b0 #
b1100 $
b1000 )
b100 *
b1 +
b0 6
07
b100 9
#140000
0!
#145000
1!
b1100 "
b1 #
b100 $
b1100 &
b1100 (
b1100 )
b101 *
b1100 +
#150000
0!
#155000
1!
b10 #
b10000 $
b100 *
11
#160000
0!
#165000
1!
b11 #
b10001 $
b1001 '
b101 *
b11 -
01
b1000010010010000000101010 5
#170000
0!
#175000
1!
b101001 #
b11 $
b0 )
b11 *
b101 -
#180000
0!
#185000
1!
b101010 #
b101 $
b11 &
b101 *
b11 +
17
b101 9
#190000
0!
#195000
1!
b0 #
b10000 $
b101 &
b1100 )
b100 *
b101 +
b11 -
07
#200000
0!
#205000
1!
b10000 "
b1 #
b0 $
b10000 &
b10000 (
b10000 )
b101 *
b10000 +
#210000
0!
#215000
1!
b10 #
b10100 $
b100 *
11
#220000
0!
#225000
1!
b11 #
b101 $
b0 )
b101 *
b10000000101010 -
01
b10100100000010000000000001010000 5
#230000
0!
#235000
1!
b1001010 #
b100 $
b11 %
b1 &
b100 '
b1 )
b11 *
b11 -
b11 .
b11 6
17
b1 8
#240000
0!
#245000
1!
b0 #
b10100 $
b10000 &
b1001 '
b10000 )
b100 *
b10000000101010 -
b0 6
07
b11 9
#250000
0!
#255000
1!
b10100 "
b1 #
b0 $
b10100 &
b10100 (
b10100 )
b11 *
b10100 +
#260000
0!
#265000
1!
b10 #
b11000 $
b100 *
11
#270000
0!
#275000
1!
b11 #
b11 $
b1000 '
b0 )
b11 *
b1010000 -
01
b10100100000010010000000001010010 5
b0 8
#280000
0!
#285000
1!
b1010011 #
b1010000 $
b1 %
b1 &
b1010000 *
b1 -
b1 .
b11 6
#290000
0!
#295000
1!
b1010100 #
b1010000 (
b1010000 +
12
b1 9
#300000
0!
#305000
1!
b1010101 #
b0 $
b1010000 &
b10100 )
b1 *
b1010000 -
b0 6
#310000
0!
#315000
1!
b1010111 #
b10000000000000000 .
b10 /
b0 5
1<
#320000
0!
#325000
1!
b1011000 #
b10100 (
b1 .
b0 /
02
0<
#330000
0!
#335000
1!
b1011001 #
b10000000000000000 5
#340000
0!
#345000
1!
b0 #
b11000 $
b100 *
b10100100000010010000000001010010 5
#350000
0!
#355000
1!
b11000 "
b1 #
b0 $
b11000 &
b11000 (
b11000 )
b1 *
b11000 +
#360000
0!
#365000
1!
b10 #
b11100 $
b100 *
11
#370000
0!
#375000
1!
b11 #
b1 $
b1001 '
b0 )
b1 *
b1010010 -
01
b10010000000001010000000001010000 5
#380000
0!
#385000
1!
b1010011 #
b1010010 $
b11 %
b1 &
b1010010 *
b11 -
b11 .
b11 6
#390000
0!
#395000
1!
b1010100 #
b1010010 (
b1010010 +
12
b11 9
#400000
0!
#405000
1!
b1010101 #
b0 $
b1010010 &
b11000 )
b11 *
b1010010 -
b0 6
#410000
0!
#415000
1!
b1010111 #
b110000000000000000 .
b10 /
b0 5
1<
#420000
0!
#425000
1!
b1011000 #
b11000 (
b11 .
b0 /
02
0<
#430000
0!
#435000
1!
b1011001 #
b110000000000000000 5
#440000
0!
#445000
1!
b0 #
b11100 $
b100 *
b10010000000001010000000001010000 5
#450000
0!
#455000
1!
b11100 "
b1 #
b0 $
b11100 &
b11100 (
b11100 )
b11 *
b11100 +
#460000
0!
#465000
1!
b10 #
b100000 $
b100 *
11
#470000
0!
#475000
1!
b11 #
b0 $
b101 '
b11 *
b1010000 -
01
b101000101010000000000000010100 5
#480000
0!
#485000
1!
b101011 #
#490000
0!
#495000
1!
b101100 #
b1010000 $
b0 %
b0 )
b1010000 *
b0 .
b1100 9
#500000
0!
#505000
1!
b101101 #
b0 $
b1010000 &
b1010000 (
b11100 )
b0 *
b1010000 +
12
b110000 9
#510000
0!
#515000
1!
b101110 #
b11000000 9
#520000
0!
#525000
1!
b101111 #
b10000000000000000 5
b1100000000 9
#530000
0!
#535000
1!
b110000 #
b11100 (
02
b110000000000 9
#540000
0!
#545000
1!
b110001 #
b0 &
b10000000000000000 4
b1 6
17
b11000000000000 9
#550000
0!
#555000
1!
b0 #
b100000 $
b1010000 &
b100 *
b101000101010000000000000010100 5
b0 6
07
b1100000000000000 9
#560000
0!
#565000
1!
b100000 "
b1 #
b0 $
b100000 &
b100000 (
b100000 )
b0 *
b100000 +
#570000
0!
#575000
1!
b10 #
b100100 $
b100 *
11
#580000
0!
#585000
1!
b11 #
b0 $
b1000 '
b0 )
b0 *
b10100 -
01
b0 5
#590000
0!
#595000
1!
b1001011 #
b10100 $
b1 %
b1 &
b10100 *
b1 -
b1 .
b11 6
17
#600000
0!
#605000
1!
b0 #
b100100 $
b100000 &
b100000 )
b100 *
b10100 -
b0 6
07
b1 9
#610000
0!
#615000
1!
b100100 "
b1 #
b0 $
b100100 &
b100100 (
b100100 )
b1 *
b100100 +
#620000
0!
#625000
1!
b10 #
b101000 $
b100 *
11
#630000
0!
#635000
1!
b11 #
b100101 $
b0 '
b1 *
b0 -
01
#640000
0!
#645000
1!
b11110 #
b1 $
b0 )
17
#650000
0!
#655000
1!
b11111 #
b100 $
b0 %
b1 &
b100 *
b1 +
b0 .
07
b100 9
#660000
0!
#665000
1!
b100000 #
b0 $
b100 &
b0 *
b100 +
b0 9
#670000
0!
#675000
1!
b100001 #
b0 &
b0 +
b10 6
17
#680000
0!
#685000
1!
b0 #
b101000 $
b100100 )
b100 *
b0 6
07
#690000
0!
#695000
1!
b101000 "
b1 #
b0 $
b101000 &
b101000 (
b101000 )
b0 *
b101000 +
#700000
0!
#705000
1!
b10 #
b101100 $
b100 *
11
#710000
0!
#715000
1!
b11 #
b101000 $
b0 *
01
#720000
0!
#725000
1!
b11110 #
b0 $
b0 )
17
#730000
0!
#735000
1!
b11111 #
b0 &
b0 +
07
#740000
0!
#745000
1!
b100000 #
#750000
0!
#755000
1!
b100001 #
b10 6
17
#760000
0!
#765000
1!
b0 #
b101100 $
b101000 )
b100 *
b0 6
07
#770000
0!
#775000
1!
b101100 "
b1 #
b0 $
b101100 &
b101100 (
b101100 )
b0 *
b101100 +
#780000
0!
#785000
1!
b10 #
b110000 $
b100 *
11
#790000
0!
#795000
1!
b11 #
b101100 $
b0 *
01
#800000
0!
#805000
1!
b11110 #
b0 $
b0 )
17
#810000
0!
#815000
1!
b11111 #
b0 &
b0 +
07
#820000
0!
#825000
1!
b100000 #
#830000
0!
#835000
1!
b100001 #
b10 6
17
#840000
0!
#845000
1!
b0 #
b110000 $
b101100 )
b100 *
b0 6
07
#850000
0!
#855000
1!
b110000 "
b1 #
b0 $
b110000 &
b110000 (
b110000 )
b0 *
b110000 +
#860000
0!
#865000
1!
b10 #
b110100 $
b100 *
11
#870000
0!
#875000
1!
b11 #
b110000 $
b0 *
01
#880000
0!
#885000
1!
b11110 #
b0 $
b0 )
17
#890000
0!
#895000
1!
b11111 #
b0 &
b0 +
07
#900000
0!
#905000
1!
b100000 #
#910000
0!
#915000
1!
b100001 #
b10 6
17
#920000
0!
#925000
1!
b0 #
b110100 $
b110000 )
b100 *
b0 6
07
#930000
0!
#935000
1!
b110100 "
b1 #
b0 $
b110100 &
b110100 (
b110100 )
b0 *
b110100 +
#940000
0!
#945000
1!
b10 #
b111000 $
b100 *
11
#950000
0!
#955000
1!
b11 #
b110100 $
b0 *
01
#960000
0!
#965000
1!
b11110 #
b0 $
b0 )
17
#970000
0!
#975000
1!
b11111 #
b0 &
b0 +
07
#980000
0!
#985000
1!
b100000 #
#990000
0!
#995000
1!
b100001 #
b10 6
17
