projeto/hardware.vcd
$comment
Copyright (C) 1991-2010 Altera Corporation
Your use of Altera Corporation's design tools, logic functions 
and other software and tools, and its AMPP partner logic 
functions, and any output files from any of the foregoing 
(including device programming or simulation files), and any 
associated documentation or information are expressly subject 
to the terms and conditions of the Altera Program License 
Subscription Agreement, Altera MegaCore Function License 
Agreement, or other applicable license agreement, including, 
without limitation, that your use is for the sole purpose of 
programming logic devices manufactured by Altera and sold by 
Altera or its authorized distributors.  Please refer to the 
applicable agreement for further details.
$end

$date 
  05/03/2018 19:07:15 
$end
$version 
 QUARTUS_VCD_EXPORT 1.0 
$end
$timescale
  1 ps
$end
$scope module cpu $end
$var reg 7 ! Estado[6:0] $end
$var reg 1 " clock $end
$var reg 1 # reset $end
$var reg 32 $ PC[31:0] $end
$var reg 5 % contador_mult[4:0] $end
$var reg 32 & Alu[31:0] $end
$var reg 32 ' AluOut[31:0] $end
$var reg 32 ( EntradaULA1[31:0] $end
$var reg 32 ) EntradaULA2[31:0] $end
$var reg 32 * ExceptionAddress[31:0] $end
$var reg 1 + ExceptionSelector $end
$var reg 1 , IRWrite $end
$var reg 16 - Instr15_0[15:0] $end
$var reg 5 . Instr20_16[4:0] $end
$var reg 5 / Instr25_21[4:0] $end
$var reg 6 0 Instr31_26[5:0] $end
$var reg 1 1 LoadMult $end
$var reg 32 2 MemData[31:0] $end
$var reg 3 3 MemParaReg[2:0] $end
$var reg 1 4 RegWrite $end
$var reg 32 5 SaidaA[31:0] $end
$var reg 32 6 WriteDataMem[31:0] $end
$var reg 32 7 WriteDataReg[31:0] $end
$var reg 5 8 WriteRegister[4:0] $end
$var reg 32 9 extensorEShift[31:0] $end
$var reg 32 : mult_high[31:0] $end
$var reg 32 ; mult_low[31:0] $end
$var reg 64 < resultado_mult[63:0] $end
$var reg 1 = wr $end
$upscope $end
$enddefinitions $end
#0
$dumpvars
b0 !
0"
0#
b0 $
b0 %
b100 &
b0 '
b0 (
b100 )
b11111110 *
0+
0,
b0 -
b0 .
b0 /
b0 0
01
b0 2
b0 3
04
b0 5
b0 6
b0 7
b0 8
b0 9
b0 :
b0 ;
b0 <
0=
$end
#5000
b1 !
1"
b100 $
b1 %
b0 &
b100 '
b100 (
b0 )
b100 7
#10000
0"
#15000
b10 !
1"
b10 %
b1000 &
b100 )
1,
b111100000000010000000000000010 2
#20000
0"
#25000
b11 !
1"
b11 %
b0 &
b0 (
b0 )
0,
b10 -
b1 .
b1111 0
b111100000000100000000000000011 2
b1 8
#30000
0"
#35000
b11010 !
1"
b100 %
b10 &
b10 )
b10 9
#40000
0"
#45000
b11011 !
1"
b101 %
b100000 &
b10 '
b100000 )
14
b10 7
b100000 9
#50000
0"
#55000
b0 !
1"
b110 %
b1000 &
b100 (
b100 )
04
#60000
0"
#65000
b1 !
1"
b1000 $
b111 %
b0 &
b1000 '
b1000 (
b0 )
b1000 7
#70000
0"
#75000
b10 !
1"
b1000 %
b1100 &
b100 )
1,
#80000
0"
#85000
b11 !
1"
b1001 %
b100000 &
b0 (
b100000 )
0,
b11 -
b10 .
b1000100000000000011000 2
b10 8
#90000
0"
#95000
b11010 !
1"
b1010 %
b11 &
b11 )
b11 9
#100000
0"
#105000
b11011 !
1"
b1011 %
b110000 &
b11 '
b110000 )
14
b11 7
b110000 9
#110000
0"
#115000
b0 !
1"
b1100 %
b1100 &
b1000 (
b100 )
04
#120000
0"
#125000
b1 !
1"
b1100 $
b1101 %
b0 &
b1100 '
b1100 (
b0 )
b1100 7
#130000
0"
#135000
b10 !
1"
b1110 %
b10000 &
b100 )
1,
#140000
0"
#145000
b11 !
1"
b1111 %
b0 &
b0 )
0,
b11000 -
b1 /
b0 0
b1000000010000 2
b0 8
#150000
0"
#155000
b1000110 !
1"
b10000 %
b110010 &
b10 (
b110000 )
11
14
b10 5
b11 6
b10 8
#160000
0"
#165000
b1000111 !
1"
b1 %
b101 &
b110010 '
b11 )
01
b110010 7
b11 9
#170000
0"
#175000
1"
b10 %
b101 '
b101 7
#180000
0"
#185000
1"
b11 %
#190000
0"
#195000
1"
b100 %
#200000
0"
#205000
1"
b101 %
#210000
0"
#215000
1"
b110 %
#220000
0"
#225000
1"
b111 %
#230000
0"
#235000
1"
b1000 %
#240000
0"
#245000
1"
b1001 %
#250000
0"
#255000
1"
b1010 %
#260000
0"
#265000
1"
b1011 %
#270000
0"
#275000
1"
b1100 %
#280000
0"
#285000
1"
b1101 %
#290000
0"
#295000
1"
b1110 %
#300000
0"
#305000
1"
b1111 %
#310000
0"
#315000
1"
b10000 %
#320000
0"
#325000
1"
b10001 %
#330000
0"
#335000
1"
b10010 %
#340000
0"
#345000
1"
b10011 %
#350000
0"
#355000
1"
b10100 %
#360000
0"
#365000
1"
b10101 %
#370000
0"
#375000
1"
b10110 %
#380000
0"
#385000
1"
b10111 %
#390000
0"
#395000
1"
b11000 %
#400000
0"
#405000
1"
b11001 %
#410000
0"
#415000
1"
b11010 %
#420000
0"
#425000
1"
b11011 %
#430000
0"
#435000
1"
b11100 %
#440000
0"
#445000
1"
b11101 %
#450000
0"
#455000
1"
b11110 %
#460000
0"
#465000
1"
b11111 %
#470000
0"
#475000
b0 !
1"
b1 %
b10000 &
b1100 (
b100 )
04
b110 <
#480000
0"
#485000
b1 !
1"
b10000 $
b10 %
b0 &
b10000 '
b10000 (
b11 )
b10000 7
b110 ;
#490000
0"
#495000
b10 !
1"
b11 %
b10100 &
b100 )
1,
#500000
0"
#505000
b11 !
1"
b100 %
b0 &
b11 )
0,
b1000000010000 -
b0 .
b0 /
b1100000010010 2
b100 3
14
b0 7
#510000
0"
#515000
b0 !
1"
b101 %
b10100 &
b100 )
b0 3
04
b0 5
b0 6
b10000 7
b0 8
#520000
0"
#525000
b1 !
1"
b10100 $
b110 %
b0 &
b10100 '
b10100 (
b0 )
b10100 7
#530000
0"
#535000
b10 !
1"
b111 %
b11000 &
b100 )
1,
#540000
0"
#545000
b11 !
1"
b1000 %
b0 &
b0 )
0,
b1100000010010 -
b0 2
b101 3
14
b110 7
b11 8
#550000
0"
#555000
b0 !
1"
b1001 %
b11000 &
b100 )
b0 3
04
b10100 7
b0 8
#560000
0"
#565000
b1 !
1"
b11000 $
b1010 %
b0 &
b11000 '
b11000 (
b0 )
b11000 7
#570000
0"
#575000
b10 !
1"
b1011 %
b11100 &
b100 )
1,
#580000
0"
#585000
b11 !
1"
b1100 %
b11000 &
b0 )
0,
b0 -
#590000
0"
#595000
b11110 !
1"
b1101 %
b11 &
b0 (
b11 )
14
#600000
0"
#605000
b11111 !
1"
b1110 %
b110000 &
b11 '
b110000 )
04
b11 7
b110000 9
#610000
0"
#615000
b100000 !
1"
b1111 %
b0 &
b110000 '
b0 )
b110000 7
b0 9
#620000
0"
#625000
b100001 !
1"
b10000 %
b0 '
b10 3
14
b0 7
#630000
0"
#635000
b0 !
1"
b10001 %
b11100 &
b11000 (
b100 )
b0 3
04
#640000
0"
#645000
b1 !
1"
b11100 $
b10010 %
b0 &
b11100 '
b11100 (
b0 )
b11100 7
#650000
0"
#655000
b10 !
1"
b10011 %
b100000 &
b100 )
1,
#660000
0"
#665000
b11 !
1"
b10100 %
b11100 &
b0 )
0,
#670000
0"
#675000
b11110 !
1"
b10101 %
b0 &
b0 (
14
#680000
0"
#685000
b11111 !
1"
b10110 %
b0 '
04
b0 7
#690000
0"
#695000
b100000 !
1"
b10111 %
#700000
0"
#705000
b100001 !
1"
b11000 %
b10 3
14
#710000
0"
#715000
b0 !
1"
b11001 %
b100000 &
b11100 (
b100 )
b0 3
04
#720000
0"
#725000
b1 !
1"
b100000 $
b11010 %
b0 &
b100000 '
b100000 (
b0 )
b100000 7
#730000
0"
#735000
b10 !
1"
b11011 %
b100100 &
b100 )
1,
#740000
0"
#745000
b11 !
1"
b11100 %
b100000 &
b0 )
0,
#750000
0"
#755000
b11110 !
1"
b11101 %
b0 &
b0 (
14
#760000
0"
#765000
b11111 !
1"
b11110 %
b0 '
04
b0 7
#770000
0"
#775000
b100000 !
1"
b11111 %
#780000
0"
#785000
b100001 !
1"
b1 %
b10 3
14
#790000
0"
#795000
b0 !
1"
b10 %
b100100 &
b100000 (
b100 )
b0 3
04
#800000
0"
#805000
b1 !
1"
b100100 $
b11 %
b0 &
b100100 '
b100100 (
b0 )
b100100 7
#810000
0"
#815000
b10 !
1"
b100 %
b101000 &
b100 )
1,
#820000
0"
#825000
b11 !
1"
b101 %
b100100 &
b0 )
0,
#830000
0"
#835000
b11110 !
1"
b110 %
b0 &
b0 (
14
#840000
0"
#845000
b11111 !
1"
b111 %
b0 '
04
b0 7
#850000
0"
#855000
b100000 !
1"
b1000 %
#860000
0"
#865000
b100001 !
1"
b1001 %
b10 3
14
#870000
0"
#875000
b0 !
1"
b1010 %
b101000 &
b100100 (
b100 )
b0 3
04
#880000
0"
#885000
b1 !
1"
b101000 $
b1011 %
b0 &
b101000 '
b101000 (
b0 )
b101000 7
#890000
0"
#895000
b10 !
1"
b1100 %
b101100 &
b100 )
1,
#900000
0"
#905000
b11 !
1"
b1101 %
b101000 &
b0 )
0,
#910000
0"
#915000
b11110 !
1"
b1110 %
b0 &
b0 (
14
#920000
0"
#925000
b11111 !
1"
b1111 %
b0 '
04
b0 7
#930000
0"
#935000
b100000 !
1"
b10000 %
#940000
0"
#945000
b100001 !
1"
b10001 %
b10 3
14
#950000
0"
#955000
b0 !
1"
b10010 %
b101100 &
b101000 (
b100 )
b0 3
04
#960000
0"
#965000
b1 !
1"
b101100 $
b10011 %
b0 &
b101100 '
b101100 (
b0 )
b101100 7
#970000
0"
#975000
b10 !
1"
b10100 %
b110000 &
b100 )
1,
#980000
0"
#985000
b11 !
1"
b10101 %
b101100 &
b0 )
0,
#990000
0"
#995000
b11110 !
1"
b10110 %
b0 &
b0 (
14
