projeto/hardware.vcd
$comment
Copyright (C) 1991-2010 Altera Corporation
Your use of Altera Corporation's design tools, logic functions 
and other software and tools, and its AMPP partner logic 
functions, and any output files from any of the foregoing 
(including device programming or simulation files), and any 
associated documentation or information are expressly subject 
to the terms and conditions of the Altera Program License 
Subscription Agreement, Altera MegaCore Function License 
Agreement, or other applicable license agreement, including, 
without limitation, that your use is for the sole purpose of 
programming logic devices manufactured by Altera and sold by 
Altera or its authorized distributors.  Please refer to the 
applicable agreement for further details.
$end

$date 
  05/03/2018 21:43:38 
$end
$version 
 QUARTUS_VCD_EXPORT 1.0 
$end
$timescale
  1 ps
$end
$scope module cpu $end
$var reg 7 ! Estado[6:0] $end
$var reg 1 " clock $end
$var reg 1 # reset $end
$var reg 32 $ PC[31:0] $end
$var reg 32 % Alu[31:0] $end
$var reg 32 & AluOut[31:0] $end
$var reg 32 ' EntradaULA1[31:0] $end
$var reg 32 ( EntradaULA2[31:0] $end
$var reg 32 ) ExceptionAddress[31:0] $end
$var reg 1 * ExceptionSelector $end
$var reg 1 + IRWrite $end
$var reg 16 , Instr15_0[15:0] $end
$var reg 5 - Instr20_16[4:0] $end
$var reg 5 . Instr25_21[4:0] $end
$var reg 6 / Instr31_26[5:0] $end
$var reg 1 0 LoadMult $end
$var reg 32 1 MemData[31:0] $end
$var reg 1 2 MenorULA $end
$var reg 3 3 MemParaReg[2:0] $end
$var reg 1 4 RegWrite $end
$var reg 32 5 SaidaA[31:0] $end
$var reg 32 6 WriteDataMem[31:0] $end
$var reg 32 7 WriteDataReg[31:0] $end
$var reg 5 8 WriteRegister[4:0] $end
$var reg 5 9 contador_mult[4:0] $end
$var reg 32 : extensorEShift[31:0] $end
$var reg 32 ; mult_high[31:0] $end
$var reg 32 < mult_low[31:0] $end
$var reg 64 = resultado_mult[63:0] $end
$var reg 1 > wr $end
$var reg 1 ? MaiorULA $end
$upscope $end
$enddefinitions $end
#0
$dumpvars
b0 !
0"
0#
b0 $
b100 %
b0 &
b0 '
b100 (
b11111110 )
0*
0+
b0 ,
b0 -
b0 .
b0 /
00
b0 1
12
b0 3
04
b0 5
b0 6
b0 7
b0 8
b0 9
b0 :
b0 ;
b0 <
b0 =
0>
0?
$end
#5000
b1 !
1"
b100 $
b0 %
b100 &
b100 '
b0 (
b100 7
b1 9
#10000
0"
#15000
b10 !
1"
b1000 %
b100 (
1+
b111100000010000000000000001101 1
b10 9
#20000
0"
#25000
b11 !
1"
b0 %
b0 '
b0 (
0+
b1101 ,
b1000 -
b1111 /
b101001000010010000000000001111 1
02
b1000 8
b11 9
#30000
0"
#35000
b11010 !
1"
b1101 %
b1101 (
12
b100 9
b1101 :
#40000
0"
#45000
b11011 !
1"
b11010000 %
b1101 &
b11010000 (
14
b1101 7
b101 9
b11010000 :
#50000
0"
#55000
b0 !
1"
b1000 %
b100 '
b100 (
04
b110 9
#60000
0"
#65000
b1 !
1"
b1000 $
b0 %
b1000 &
b1000 '
b0 (
b1000 7
b111 9
#70000
0"
#75000
b10 !
1"
b1100 %
b100 (
1+
b1000 9
#80000
0"
#85000
b11 !
1"
b0 %
b0 '
b0 (
0+
b1111 ,
b1001 -
b1000 .
b1010 /
b0 1
02
b1001 8
b1001 9
#90000
0"
#95000
b1001011 !
1"
b11100 %
b1101 '
b1111 (
12
b11 3
14
b1101 5
b1 7
b1010 9
#100000
0"
#105000
b0 !
1"
b1100 %
b1000 '
b100 (
b0 3
04
b1000 7
b1011 9
b0 :
#110000
0"
#115000
b1 !
1"
b1100 $
b0 %
b1100 &
b1100 '
b0 (
b1100 7
b1100 9
#120000
0"
#125000
b10 !
1"
b10000 %
b100 (
1+
b1101 9
#130000
0"
#135000
b11 !
1"
b1100 %
b0 (
0+
b0 ,
b0 -
b0 .
b0 /
b0 8
b1110 9
#140000
0"
#145000
b11110 !
1"
b0 %
b0 '
02
14
b0 5
b1111 9
#150000
0"
#155000
b11111 !
1"
b0 &
04
b0 7
b10000 9
#160000
0"
#165000
b100000 !
1"
b10001 9
#170000
0"
#175000
b100001 !
1"
b10 3
14
b10010 9
#180000
0"
#185000
b0 !
1"
b10000 %
b1100 '
b100 (
12
b0 3
04
b10011 9
#190000
0"
#195000
b1 !
1"
b10000 $
b0 %
b10000 &
b10000 '
b0 (
b10000 7
b10100 9
#200000
0"
#205000
b10 !
1"
b10100 %
b100 (
1+
b10101 9
#210000
0"
#215000
b11 !
1"
b10000 %
b0 (
0+
b10110 9
#220000
0"
#225000
b11110 !
1"
b0 %
b0 '
02
14
b10111 9
#230000
0"
#235000
b11111 !
1"
b0 &
04
b0 7
b11000 9
#240000
0"
#245000
b100000 !
1"
b11001 9
#250000
0"
#255000
b100001 !
1"
b10 3
14
b11010 9
#260000
0"
#265000
b0 !
1"
b10100 %
b10000 '
b100 (
12
b0 3
04
b11011 9
#270000
0"
#275000
b1 !
1"
b10100 $
b0 %
b10100 &
b10100 '
b0 (
b10100 7
b11100 9
#280000
0"
#285000
b10 !
1"
b11000 %
b100 (
1+
b11101 9
#290000
0"
#295000
b11 !
1"
b10100 %
b0 (
0+
b11110 9
#300000
0"
#305000
b11110 !
1"
b0 %
b0 '
02
14
b11111 9
#310000
0"
#315000
b11111 !
1"
b0 &
04
b0 7
b1 9
#320000
0"
#325000
b100000 !
1"
b10 9
#330000
0"
#335000
b100001 !
1"
b10 3
14
b11 9
#340000
0"
#345000
b0 !
1"
b11000 %
b10100 '
b100 (
12
b0 3
04
b100 9
#350000
0"
#355000
b1 !
1"
b11000 $
b0 %
b11000 &
b11000 '
b0 (
b11000 7
b101 9
#360000
0"
#365000
b10 !
1"
b11100 %
b100 (
1+
b110 9
#370000
0"
#375000
b11 !
1"
b11000 %
b0 (
0+
b111 9
#380000
0"
#385000
b11110 !
1"
b0 %
b0 '
02
14
b1000 9
#390000
0"
#395000
b11111 !
1"
b0 &
04
b0 7
b1001 9
#400000
0"
#405000
b100000 !
1"
b1010 9
#410000
0"
#415000
b100001 !
1"
b10 3
14
b1011 9
#420000
0"
#425000
b0 !
1"
b11100 %
b11000 '
b100 (
12
b0 3
04
b1100 9
#430000
0"
#435000
b1 !
1"
b11100 $
b0 %
b11100 &
b11100 '
b0 (
b11100 7
b1101 9
#440000
0"
#445000
b10 !
1"
b100000 %
b100 (
1+
b1110 9
#450000
0"
#455000
b11 !
1"
b11100 %
b0 (
0+
b1111 9
#460000
0"
#465000
b11110 !
1"
b0 %
b0 '
02
14
b10000 9
#470000
0"
#475000
b11111 !
1"
b0 &
04
b0 7
b10001 9
#480000
0"
#485000
b100000 !
1"
b10010 9
#490000
0"
#495000
b100001 !
1"
b10 3
14
b10011 9
#500000
0"
#505000
b0 !
1"
b100000 %
b11100 '
b100 (
12
b0 3
04
b10100 9
#510000
0"
#515000
b1 !
1"
b100000 $
b0 %
b100000 &
b100000 '
b0 (
b100000 7
b10101 9
#520000
0"
#525000
b10 !
1"
b100100 %
b100 (
1+
b10110 9
#530000
0"
#535000
b11 !
1"
b100000 %
b0 (
0+
b10111 9
#540000
0"
#545000
b11110 !
1"
b0 %
b0 '
02
14
b11000 9
#550000
0"
#555000
b11111 !
1"
b0 &
04
b0 7
b11001 9
#560000
0"
#565000
b100000 !
1"
b11010 9
#570000
0"
#575000
b100001 !
1"
b10 3
14
b11011 9
#580000
0"
#585000
b0 !
1"
b100100 %
b100000 '
b100 (
12
b0 3
04
b11100 9
#590000
0"
#595000
b1 !
1"
b100100 $
b0 %
b100100 &
b100100 '
b0 (
b100100 7
b11101 9
#600000
0"
#605000
b10 !
1"
b101000 %
b100 (
1+
b11110 9
#610000
0"
#615000
b11 !
1"
b100100 %
b0 (
0+
b11111 9
#620000
0"
#625000
b11110 !
1"
b0 %
b0 '
02
14
b1 9
#630000
0"
#635000
b11111 !
1"
b0 &
04
b0 7
b10 9
#640000
0"
#645000
b100000 !
1"
b11 9
#650000
0"
#655000
b100001 !
1"
b10 3
14
b100 9
#660000
0"
#665000
b0 !
1"
b101000 %
b100100 '
b100 (
12
b0 3
04
b101 9
#670000
0"
#675000
b1 !
1"
b101000 $
b0 %
b101000 &
b101000 '
b0 (
b101000 7
b110 9
#680000
0"
#685000
b10 !
1"
b101100 %
b100 (
1+
b111 9
#690000
0"
#695000
b11 !
1"
b101000 %
b0 (
0+
b1000 9
#700000
0"
#705000
b11110 !
1"
b0 %
b0 '
02
14
b1001 9
#710000
0"
#715000
b11111 !
1"
b0 &
04
b0 7
b1010 9
#720000
0"
#725000
b100000 !
1"
b1011 9
#730000
0"
#735000
b100001 !
1"
b10 3
14
b1100 9
#740000
0"
#745000
b0 !
1"
b101100 %
b101000 '
b100 (
12
b0 3
04
b1101 9
#750000
0"
#755000
b1 !
1"
b101100 $
b0 %
b101100 &
b101100 '
b0 (
b101100 7
b1110 9
#760000
0"
#765000
b10 !
1"
b110000 %
b100 (
1+
b1111 9
#770000
0"
#775000
b11 !
1"
b101100 %
b0 (
0+
b10000 9
#780000
0"
#785000
b11110 !
1"
b0 %
b0 '
02
14
b10001 9
#790000
0"
#795000
b11111 !
1"
b0 &
04
b0 7
b10010 9
#800000
0"
#805000
b100000 !
1"
b10011 9
#810000
0"
#815000
b100001 !
1"
b10 3
14
b10100 9
#820000
0"
#825000
b0 !
1"
b110000 %
b101100 '
b100 (
12
b0 3
04
b10101 9
#830000
0"
#835000
b1 !
1"
b110000 $
b0 %
b110000 &
b110000 '
b0 (
b110000 7
b10110 9
#840000
0"
#845000
b10 !
1"
b110100 %
b100 (
1+
b10111 9
#850000
0"
#855000
b11 !
1"
b110000 %
b0 (
0+
b11000 9
#860000
0"
#865000
b11110 !
1"
b0 %
b0 '
02
14
b11001 9
#870000
0"
#875000
b11111 !
1"
b0 &
04
b0 7
b11010 9
#880000
0"
#885000
b100000 !
1"
b11011 9
#890000
0"
#895000
b100001 !
1"
b10 3
14
b11100 9
#900000
0"
#905000
b0 !
1"
b110100 %
b110000 '
b100 (
12
b0 3
04
b11101 9
#910000
0"
#915000
b1 !
1"
b110100 $
b0 %
b110100 &
b110100 '
b0 (
b110100 7
b11110 9
#920000
0"
#925000
b10 !
1"
b111000 %
b100 (
1+
b11111 9
#930000
0"
#935000
b11 !
1"
b110100 %
b0 (
0+
b1 9
#940000
0"
#945000
b11110 !
1"
b0 %
b0 '
02
14
b10 9
#950000
0"
#955000
b11111 !
1"
b0 &
04
b0 7
b11 9
#960000
0"
#965000
b100000 !
1"
b100 9
#970000
0"
#975000
b100001 !
1"
b10 3
14
b101 9
#980000
0"
#985000
b0 !
1"
b111000 %
b110100 '
b100 (
12
b0 3
04
b110 9
#990000
0"
#995000
b1 !
1"
b111000 $
b0 %
b111000 &
b111000 '
b0 (
b111000 7
b111 9
