projeto/hardware.vcd
$comment
Copyright (C) 1991-2010 Altera Corporation
Your use of Altera Corporation's design tools, logic functions 
and other software and tools, and its AMPP partner logic 
functions, and any output files from any of the foregoing 
(including device programming or simulation files), and any 
associated documentation or information are expressly subject 
to the terms and conditions of the Altera Program License 
Subscription Agreement, Altera MegaCore Function License 
Agreement, or other applicable license agreement, including, 
without limitation, that your use is for the sole purpose of 
programming logic devices manufactured by Altera and sold by 
Altera or its authorized distributors.  Please refer to the 
applicable agreement for further details.
$end

$date 
  05/03/2018 16:15:36 
$end
$version 
 QUARTUS_VCD_EXPORT 1.0 
$end
$timescale
  1 ps
$end
$scope module cpu $end
$var reg 7 ! Estado[6:0] $end
$var reg 1 " clock $end
$var reg 1 # reset $end
$var reg 32 $ PC[31:0] $end
$var reg 32 % Alu[31:0] $end
$var reg 32 & AluOut[31:0] $end
$var reg 32 ' EPCOut[31:0] $end
$var reg 32 ( EntradaULA1[31:0] $end
$var reg 32 ) EntradaULA2[31:0] $end
$var reg 32 * ExceptionAddress[31:0] $end
$var reg 1 + ExceptionSelector $end
$var reg 1 , IRWrite $end
$var reg 16 - Instr15_0[15:0] $end
$var reg 5 . Instr20_16[4:0] $end
$var reg 5 / Instr25_21[4:0] $end
$var reg 6 0 Instr31_26[5:0] $end
$var reg 1 1 LoadMult $end
$var reg 32 2 MemData[31:0] $end
$var reg 2 3 MemParaReg[1:0] $end
$var reg 1 4 RegWrite $end
$var reg 32 5 SaidaA[31:0] $end
$var reg 32 6 WriteDataMem[31:0] $end
$var reg 32 7 WriteDataReg[31:0] $end
$var reg 5 8 WriteRegister[4:0] $end
$var reg 32 9 extensorEShift[31:0] $end
$var reg 32 : mult_high[31:0] $end
$var reg 32 ; mult_low[31:0] $end
$var reg 64 < resultado_mult[63:0] $end
$var reg 1 = wr $end
$upscope $end
$enddefinitions $end
#0
$dumpvars
b0 !
0"
0#
b0 $
b100 %
b0 &
b0 '
b0 (
b100 )
b11111110 *
0+
0,
b0 -
b0 .
b0 /
b0 0
01
b0 2
b0 3
04
b0 5
b0 6
b0 7
b0 8
b0 9
b0 :
b0 ;
b0 <
0=
$end
#10000
b1 !
1"
b100 $
b0 %
b100 &
b100 (
b0 )
b100 7
#20000
0"
#30000
b10 !
1"
b1000 %
b100 )
1,
b111100000000010000000000000010 2
#40000
0"
#50000
b11 !
1"
b0 %
b0 (
b0 )
0,
b10 -
b1 .
b1111 0
b111100000000100000000000000011 2
b1 8
#60000
0"
#70000
b11010 !
1"
b10 %
b10 )
b10 9
#80000
0"
#90000
b11011 !
1"
b100000 %
b10 &
b100000 )
14
b10 7
b100000 9
#100000
0"
#110000
b0 !
1"
b1000 %
b100 (
b100 )
04
#120000
0"
#130000
b1 !
1"
b1000 $
b0 %
b1000 &
b1000 (
b0 )
b1000 7
#140000
0"
#150000
b10 !
1"
b1100 %
b100 )
1,
#160000
0"
#170000
b11 !
1"
b100000 %
b0 (
b100000 )
0,
b11 -
b10 .
b1000100000000000011000 2
b10 8
#180000
0"
#190000
b11010 !
1"
b11 %
b11 )
b11 9
#200000
0"
#210000
b11011 !
1"
b110000 %
b11 &
b110000 )
14
b11 7
b110000 9
#220000
0"
#230000
b0 !
1"
b1100 %
b1000 (
b100 )
04
#240000
0"
#250000
b1 !
1"
b1100 $
b0 %
b1100 &
b1100 (
b0 )
b1100 7
#260000
0"
#270000
b10 !
1"
b10000 %
b100 )
1,
#280000
0"
#290000
b11 !
1"
b0 %
b0 )
0,
b11000 -
b1 /
b0 0
b0 2
b0 8
#300000
0"
#310000
b1000110 !
1"
b110010 %
b10 (
b110000 )
11
14
b10 5
b11 6
b10 8
#320000
0"
#330000
b0 !
1"
b10000 %
b110010 &
b1100 (
b100 )
01
04
b110010 7
b11 9
#340000
0"
#350000
b1 !
1"
b10000 $
b0 %
b10000 &
b10000 (
b11 )
b10000 7
#360000
0"
#370000
b10 !
1"
b10100 %
b100 )
1,
#380000
0"
#390000
b11 !
1"
b10011 %
b11 )
0,
b0 -
b0 .
b0 /
b0 8
#400000
0"
#410000
b11110 !
1"
b11 %
b0 (
14
b0 5
#420000
0"
#430000
b11111 !
1"
b110000 %
b11 &
b110000 )
04
b0 6
b11 7
b110000 9
#440000
0"
#450000
b100000 !
1"
b0 %
b110000 &
b0 )
b110000 7
b0 9
#460000
0"
#470000
b100001 !
1"
b0 &
b10 3
14
b0 7
#480000
0"
#490000
b0 !
1"
b10100 %
b10000 (
b100 )
b0 3
04
#500000
0"
#510000
b1 !
1"
b10100 $
b0 %
b10100 &
b10100 (
b0 )
b10100 7
#520000
0"
#530000
b10 !
1"
b11000 %
b100 )
1,
#540000
0"
#550000
b11 !
1"
b10100 %
b0 )
0,
#560000
0"
#570000
b11110 !
1"
b0 %
b0 (
14
#580000
0"
#590000
b11111 !
1"
b0 &
04
b0 7
#600000
0"
#610000
b100000 !
1"
#620000
0"
#630000
b100001 !
1"
b10 3
14
#640000
0"
#650000
b0 !
1"
b11000 %
b10100 (
b100 )
b0 3
04
#660000
0"
#670000
b1 !
1"
b11000 $
b0 %
b11000 &
b11000 (
b0 )
b11000 7
#680000
0"
#690000
b10 !
1"
b11100 %
b100 )
1,
#700000
0"
#710000
b11 !
1"
b11000 %
b0 )
0,
#720000
0"
#730000
b11110 !
1"
b0 %
b0 (
14
#740000
0"
#750000
b11111 !
1"
b0 &
04
b0 7
#760000
0"
#770000
b100000 !
1"
#780000
0"
#790000
b100001 !
1"
b10 3
14
#800000
0"
#810000
b0 !
1"
b11100 %
b11000 (
b100 )
b0 3
04
#820000
0"
#830000
b1 !
1"
b11100 $
b0 %
b11100 &
b11100 (
b0 )
b11100 7
#840000
0"
#850000
b10 !
1"
b100000 %
b100 )
1,
#860000
0"
#870000
b11 !
1"
b11100 %
b0 )
0,
#880000
0"
#890000
b11110 !
1"
b0 %
b0 (
14
#900000
0"
#910000
b11111 !
1"
b0 &
04
b0 7
#920000
0"
#930000
b100000 !
1"
#940000
0"
#950000
b100001 !
1"
b10 3
14
b110 <
#960000
0"
#970000
b0 !
1"
b100000 %
b11100 (
b100 )
b0 3
04
b110 ;
#980000
0"
#990000
b1 !
1"
b100000 $
b0 %
b100000 &
b100000 (
b0 )
b100000 7
