projeto/hardware.vcd
$comment
Copyright (C) 1991-2010 Altera Corporation
Your use of Altera Corporation's design tools, logic functions 
and other software and tools, and its AMPP partner logic 
functions, and any output files from any of the foregoing 
(including device programming or simulation files), and any 
associated documentation or information are expressly subject 
to the terms and conditions of the Altera Program License 
Subscription Agreement, Altera MegaCore Function License 
Agreement, or other applicable license agreement, including, 
without limitation, that your use is for the sole purpose of 
programming logic devices manufactured by Altera and sold by 
Altera or its authorized distributors.  Please refer to the 
applicable agreement for further details.
$end

$date 
  05/05/2018 13:15:52 
$end
$version 
 QUARTUS_VCD_EXPORT 1.0 
$end
$timescale
  1 ps
$end
$scope module cpu $end
$var reg 32 ! EPC[31:0] $end
$var reg 32 " PC[31:0] $end
$var reg 7 # Estado[6:0] $end
$var reg 1 $ RegWrite $end
$var reg 32 % WriteDataReg[31:0] $end
$var reg 5 & WriteRegister[4:0] $end
$var reg 1 ' wr $end
$var reg 32 ( WriteDataMem[31:0] $end
$var reg 32 ) Address[31:0] $end
$var reg 32 * Alu[31:0] $end
$var reg 32 + EntradaULA1[31:0] $end
$var reg 32 , EntradaULA2[31:0] $end
$var reg 32 - EntradaRegDeslocamento[31:0] $end
$var reg 32 . AluOut[31:0] $end
$var reg 1 / IRWrite $end
$var reg 1 0 IouD $end
$var reg 32 1 MDR[31:0] $end
$var reg 32 2 Reg_Desloc[31:0] $end
$var reg 1 3 clock $end
$var reg 1 4 reset $end
$var reg 64 5 resultado_mult[63:0] $end
$var reg 5 6 contador_mult[4:0] $end
$var reg 32 7 MemData[31:0] $end
$var reg 32 8 ReadData1[31:0] $end
$var reg 32 9 ReadData2[31:0] $end
$upscope $end
$enddefinitions $end
#0
$dumpvars
b0 !
b0 "
b0 #
0$
b0 %
b0 &
0'
b0 (
b0 )
b100 *
b0 +
b100 ,
b0 -
b0 .
0/
00
b0 1
b0 2
03
04
b0 5
b0 6
b0 7
b0 8
b0 9
$end
#2000
b100 "
b1 #
b100 %
b100 )
b0 *
b100 +
b0 ,
b100 .
13
b1 6
#4000
03
#6000
b10 #
b1000 *
b100 ,
1/
13
b10 6
b111100000000110000000001100101 7
#8000
03
#10000
b11 #
b11 &
b0 *
b0 +
b0 ,
b1100101 -
0/
13
b11 6
b110001110000000010 7
#12000
03
#14000
b11010 #
b1100101 *
b1100101 ,
b1100101 2
13
b100 6
#16000
03
#18000
b11011 #
1$
b1100101 %
b110010100 *
b110010100 ,
b1100101 .
b110010100 2
13
b101 6
#20000
03
#22000
b0 #
0$
b1000 *
b100 +
b100 ,
13
b110 6
b1100101 9
#24000
03
#26000
b1000 "
b1 #
b1000 %
b1000 )
b0 *
b1000 +
b0 ,
b1000 .
13
b111 6
#28000
03
#30000
b10 #
b1100 *
b100 ,
1/
13
b1000 6
#32000
03
#34000
b11 #
b1000 *
b0 ,
b1110000000010 -
0/
13
b1001 6
b10010000000001000000000001111100 7
#36000
03
#38000
b100101 #
b110010100 *
b0 +
b110010100 ,
13
b1010 6
#40000
03
#42000
b100110 #
b110010100 %
b1100101 (
b11001010000 *
b11001010000 ,
b1100101 -
b110010100 .
b11001010000 2
13
b1011 6
#44000
03
#46000
b100111 #
1$
b1100101 %
b1100101 *
b1100101 ,
b1110000000010 -
b11001010000 .
b1100101 2
13
b1100 6
#48000
03
#50000
b101000 #
0$
b0 %
b0 *
b0 ,
b1100101 .
b0 2
13
b1101 6
#52000
03
#54000
b0 #
b1100 *
b1000 +
b100 ,
b0 .
13
b1110 6
#56000
03
#58000
b1100 "
b1 #
b1100 %
b1100 )
b100 *
b1100 +
b1100101 ,
b1100 .
13
b1111 6
#60000
03
#62000
b10 #
b10000 *
b100 ,
1/
13
b10000 6
#64000
03
#66000
b11 #
b100 &
b100 *
b1100101 ,
b1111100 -
0/
13
b10001 6
b110010101000000000 7
b0 9
#68000
03
#70000
b101011 #
13
b10010 6
#72000
03
#74000
b101100 #
b0 (
b1111100 *
b0 +
b1111100 ,
13
b10011 6
#76000
03
#78000
b101101 #
b1111100 %
b1111100 )
b0 *
b1100 +
b0 ,
b1111100 .
10
13
b10100 6
#80000
03
#82000
b101110 #
13
b10101 6
#84000
03
#86000
b101111 #
13
b10110 6
b1100001 7
#88000
03
#90000
b110000 #
b1100 )
00
13
b10111 6
#92000
03
#94000
b110001 #
1$
b1100001 %
b1100001 1
13
b11000 6
#96000
03
#98000
b0 #
0$
b1111100 %
b10000 *
b100 ,
13
b11001 6
b110010101000000000 7
b1100001 9
#100000
03
#102000
b10000 "
b1 #
b10000 %
b10000 )
b0 *
b10000 +
b0 ,
b10000 .
13
b11010 6
#104000
03
#106000
b10 #
b10100 *
b100 ,
1/
13
b11011 6
#108000
03
#110000
b11 #
b11 &
b10000 *
b0 ,
b10101000000000 -
0/
13
b11100 6
b101001000011000000100110 7
b1100101 9
#112000
03
#114000
b11110 #
1$
b101 &
b0 *
b0 +
13
b11101 6
#116000
03
#118000
b11111 #
0$
b0 %
b11 &
b1100101 (
b1100101 -
b0 .
13
b11110 6
#120000
03
#122000
b100000 #
1$
b101 &
b1100101 *
b1100101 ,
b10101000000000 -
b1100101 2
13
b11111 6
#124000
03
#126000
b100001 #
b110010100000000 %
b110010100000000 *
b110010100000000 ,
b1100101 .
b110010100000000 2
13
b1 6
#128000
03
#130000
b0 #
0$
b11 &
b10100 *
b10000 +
b100 ,
b110010100000000 .
13
b10 6
#132000
03
#134000
b10100 "
b1 #
b10100 %
b10100 )
b100 *
b10100 +
b1100101 ,
b10100 .
13
b11 6
#136000
03
#138000
b10 #
b11000 *
b100 ,
1/
13
b100 6
#140000
03
#142000
b11 #
b110 &
b100 *
b1100101 ,
b11000000100110 -
0/
13
b101 6
b100000000001110000010000000000 7
b110010100000000 8
b1100001 9
#144000
03
#146000
b1110 #
13
b110 6
#148000
03
#150000
b1111 #
b1100001 (
b110010101100001 *
b110010100000000 +
b1100001 ,
b11001010000000000 2
13
b111 6
#152000
03
#154000
b10000 #
1$
b110010101100001 %
b1100001 *
b0 +
b110010101100001 .
b1100101000000000000 2
13
b1000 6
#156000
03
#158000
b0 #
0$
b1100001 %
b100 &
b11000 *
b10100 +
b100 ,
b1100001 .
b110010100000000000000 2
13
b1001 6
#160000
03
#162000
b11000 "
b1 #
b11000 %
b11000 )
b0 *
b11000 +
b1100001 ,
b11000 .
13
b1010 6
#164000
03
#166000
b10 #
b11100 *
b100 ,
1/
13
b1011 6
#168000
03
#170000
b11 #
b111 &
b1111001 *
b1100001 ,
b10000000000 -
0/
13
b1100 6
b100000000010000001001100000000 7
b0 8
b0 9
#172000
03
#174000
b101001 #
b10000000000 *
b0 +
b10000000000 ,
b1100001 -
13
b1101 6
#176000
03
#178000
b101010 #
1$
b10000000000 %
b1100001 *
b1100001 ,
b10000000000 .
b1100001 2
13
b1110 6
#180000
03
#182000
b0 #
0$
b1100001 %
b11100 *
b11000 +
b100 ,
b10000000000 -
b1100001 .
13
b1111 6
b10000000000 9
#184000
03
#186000
b11100 "
b1 #
b11100 %
b11100 )
b0 *
b11100 +
b1100001 ,
b11100 .
13
b10000 6
#188000
03
#190000
b10 #
b100000 *
b100 ,
1/
13
b10001 6
#192000
03
#194000
b11 #
b1000 &
b1111101 *
b1100001 ,
b1001100000000 -
0/
13
b10010 6
b1100000000000000000000001010 7
b0 9
#196000
03
#198000
b101001 #
b1001100000000 *
b0 +
b1001100000000 ,
b1100001 -
13
b10011 6
#200000
03
#202000
b101010 #
1$
b1001100000000 %
b1100001 *
b1100001 ,
b1001100000000 .
13
b10100 6
#204000
03
#206000
b0 #
0$
b1100001 %
b100000 *
b11100 +
b100 ,
b1001100000000 -
b1100001 .
13
b10101 6
b1001100000000 9
#208000
03
#210000
b100000 "
b1 #
b100000 %
b100000 )
b100000 +
b1100001 ,
b100000 .
13
b10110 6
#212000
03
#214000
b10 #
b100100 *
b100 ,
1/
13
b10111 6
#216000
03
#218000
b11 #
b0 &
b100000 *
b1100001 ,
b1010 -
0/
13
b11000 6
b0 7
b0 9
#220000
03
#222000
b1011010 #
1$
b11111 &
b0 (
b1010 *
b0 +
b1010 ,
b0 -
13
b11001 6
#224000
03
#226000
b101000 "
b0 #
0$
b1010 %
b0 &
b101000 )
b101100 *
b101000 +
b100 ,
b1010 -
b1010 .
b0 2
13
b11010 6
#228000
03
#230000
b101100 "
b1 #
b101100 %
b101100 )
b0 *
b101100 +
b0 ,
b101100 .
13
b11011 6
#232000
03
#234000
b10 #
b110000 *
b100 ,
1/
13
b11100 6
b111010000000000000011000 7
#236000
03
#238000
b11 #
b0 *
b0 ,
b11000 -
0/
13
b11101 6
b100100000010010 7
b10000000000 8
b1001100000000 9
#240000
03
#242000
b1000110 #
1$
b1000 &
b1001100000000 (
b10000000000 *
b10000000000 +
b1001100000000 -
13
b11110 6
#244000
03
#246000
b1000111 #
b10000000000 %
b1011100000000 *
b1001100000000 ,
b10000000000 .
b1001100000000 2
13
b1 6
b101100 9
#248000
03
#250000
b1011100000000 %
b1011100000000 .
13
b10 6
b10000000000 9
#252000
03
#254000
13
b11 6
b1011100000000 9
#256000
03
#258000
13
b100 6
#260000
03
#262000
13
b101 6
#264000
03
#266000
13
b110 6
#268000
03
#270000
13
b111 6
#272000
03
#274000
13
b1000 6
#276000
03
#278000
13
b1001 6
#280000
03
#282000
13
b1010 6
#284000
03
#286000
13
b1011 6
#288000
03
#290000
13
b1100 6
#292000
03
#294000
13
b1101 6
#296000
03
#298000
13
b1110 6
#300000
03
#302000
13
b1111 6
#304000
03
#306000
13
b10000 6
#308000
03
#310000
13
b10001 6
#312000
03
#314000
13
b10010 6
#316000
03
#318000
13
b10011 6
#320000
03
#322000
13
b10100 6
#324000
03
#326000
13
b10101 6
#328000
03
#330000
13
b10110 6
#332000
03
#334000
13
b10111 6
#336000
03
#338000
13
b11000 6
#340000
03
#342000
13
b11001 6
#344000
03
#346000
13
b11010 6
#348000
03
#350000
13
b11011 6
#352000
03
#354000
13
b11100 6
#356000
03
#358000
13
b11101 6
#360000
03
#362000
13
b11110 6
#364000
03
#366000
13
b11111 6
#368000
03
#370000
b0 #
0$
b110000 *
b101100 +
b100 ,
b11000 -
13
b10011000000000000000000 5
b1 6
#372000
03
#374000
b110000 "
b1 #
b110000 %
b110000 )
b0 *
b110000 +
b1001100000000 ,
b110000 .
13
b10 6
#376000
03
#378000
b10 #
b110100 *
b100 ,
1/
13
b11 6
#380000
03
#382000
b11 #
1$
b10011000000000000000000 %
b1001 &
b0 *
b1001100000000 ,
b100100000010010 -
0/
13
b100 6
b10101100000010010000000001111000 7
b0 8
b0 9
#384000
03
#386000
b0 #
0$
b110000 %
b0 &
b0 (
b110100 *
b100 ,
13
b101 6
#388000
03
#390000
b110100 "
b1 #
b110100 %
b110100 )
b0 *
b110100 +
b0 ,
b110100 .
13
b110 6
#392000
03
#394000
b10 #
b111000 *
b100 ,
1/
13
b111 6
#396000
03
#398000
b11 #
b1001 &
b0 *
b0 ,
b1111000 -
0/
13
b1000 6
b10100100000001100000000001111000 7
b10011000000000000000000 9
#400000
03
#402000
b1011 #
13
b1001 6
#404000
03
#406000
b1100 #
b10011000000000000000000 (
b1111000 *
b0 +
b1111000 ,
b100110000000000 2
13
b1010 6
#408000
03
#410000
b1101 #
b1111000 %
1'
b1111000 )
b1111000 .
10
b10011000000000000 2
13
b1011 6
#412000
03
#414000
b0 #
0'
b110100 )
b111000 *
b110100 +
b100 ,
00
b1001100000000000000 2
13
b1100 6
#416000
03
#418000
b111000 "
b1 #
b111000 %
b111000 )
b0 *
b111000 +
b10011000000000000000000 ,
b111000 .
13
b1101 6
b10011000000000000000000 7
#420000
03
#422000
b10 #
b111100 *
b100 ,
1/
13
b1110 6
b10100100000001100000000001111000 7
#424000
03
#426000
b11 #
b110 &
b10011000000000000000000 *
b0 +
b10011000000000000000000 ,
0/
13
b1111 6
b10001100000010100000000001111000 7
b110010101100001 9
#428000
03
#430000
b1010011 #
b1 %
b110010101100001 (
b1111000 *
b1111000 ,
b110010101100001 -
13
b10000 6
#432000
03
#434000
b1010100 #
b1111000 )
b1111000 .
10
b110010101100001 2
13
b10001 6
#436000
03
#438000
b1010101 #
b1111000 %
b100000 *
b111000 +
b110010101100001 ,
b1111000 -
13
b10010 6
#440000
03
#442000
b1010111 #
1'
b10011000110010101100001 (
13
b10011 6
b10011000000000000000000 7
#444000
03
#446000
b1011000 #
0'
b110010101100001 (
b111000 )
00
13
b10100 6
#448000
03
#450000
b1011001 #
13
b10101 6
b10011000110010101100001 7
#452000
03
#454000
b0 #
b111100 *
b100 ,
13
b10110 6
b10001100000010100000000001111000 7
#456000
03
#458000
b111100 "
b1 #
b111100 %
b111100 )
b100000 *
b111100 +
b110010101100001 ,
b111100 .
13
b10111 6
#460000
03
#462000
b10 #
b1000000 *
b100 ,
1/
13
b11000 6
#464000
03
#466000
b11 #
b1010 &
b100000 *
b110010101100001 ,
0/
13
b11001 6
b100000110101100000101010 7
b0 9
#468000
03
#470000
b100 #
13
b11010 6
#472000
03
#474000
b101 #
b0 (
b1111000 *
b0 +
b1111000 ,
b11001010110000100 2
13
b11011 6
#476000
03
#478000
b110 #
b1111000 %
b1111000 )
b0 *
b111100 +
b0 ,
b1111000 .
10
b1100101011000010000 2
13
b11100 6
#480000
03
#482000
b111 #
b110010101100001000000 2
13
b11101 6
#484000
03
#486000
b1000 #
b11001010110000100000000 2
13
b11110 6
b10011000110010101100001 7
#488000
03
#490000
b1001 #
b111100 )
00
b1100101011000010000000000 2
13
b11111 6
#492000
03
#494000
b1010 #
1$
b10011000110010101100001 %
b10011000110010101100001 1
b110010101100001000000000000 2
13
b1 6
#496000
03
#498000
b0 #
0$
b1111000 %
b1000000 *
b100 ,
b11001010110000100000000000000 2
13
b10 6
b100000110101100000101010 7
b10011000110010101100001 9
#500000
03
#502000
b1000000 "
b1 #
b1000000 %
b1000000 )
b0 *
b1000000 +
b0 ,
b1000000 .
13
b11 6
#504000
03
#506000
b10 #
b1000100 *
b100 ,
1/
13
b100 6
#508000
03
#510000
b11 #
b11 &
b0 *
b0 +
b0 ,
b101100000101010 -
0/
13
b101 6
b11111000000000000000001000 7
b1100001 8
b1100101 9
#512000
03
#514000
b1001010 #
1$
b1 %
b1011 &
b1100101 (
b11000110 *
b1100001 +
b1100101 ,
b1100101 -
13
b110 6
#516000
03
#518000
b0 #
0$
b1000000 %
b11 &
b1000100 *
b1000000 +
b100 ,
b101100000101010 -
b1100101 2
13
b111 6
#520000
03
#522000
b1000100 "
b1 #
b1000100 %
b1000100 )
b1000100 +
b1100101 ,
b1000100 .
13
b1000 6
#524000
03
#526000
b10 #
b1001000 *
b100 ,
1/
13
b1001 6
#528000
03
#530000
b11 #
b0 &
b11000110 *
b1100001 +
b1100101 ,
b1000 -
0/
13
b1010 6
b0 7
b100000 8
b0 9
#532000
03
#534000
b11100 #
b1100001 *
13
b1011 6
#536000
03
#538000
b1100001 "
b11101 #
b1100001 )
b100000 *
b100000 +
b110010100 2
13
b1100 6
#540000
03
#542000
b100000 "
b0 #
b100000 )
b100100 *
b100 ,
b11001010000 2
13
b1101 6
#544000
03
#546000
b100100 "
b1 #
b100100 %
b100100 )
b100100 +
b1100101 ,
b100100 .
13
b1110 6
#548000
03
#550000
b10 #
b101000 *
b100 ,
1/
13
b1111 6
#552000
03
#554000
b11 #
b10001001 *
b1100101 ,
b0 -
0/
13
b10000 6
b11001100000000000000000000000000 7
b0 8
#556000
03
#558000
b11110 #
1$
b11001010000 *
b0 +
b11001010000 ,
13
b10001 6
#560000
03
#562000
b11111 #
0$
b11001010000 %
b0 (
b1100101000000 *
b1100101000000 ,
b11001010000 .
b1100101000000 2
13
b10010 6
b100100 8
b100100 9
#564000
03
#566000
b100000 #
1$
b1100101000000 %
b0 *
b0 ,
b1100101000000 .
b0 2
13
b10011 6
#568000
03
#570000
b100001 #
b0 %
b0 .
13
b10100 6
b1100101000000 8
b1100101000000 9
#572000
03
#574000
b0 #
0$
b101000 *
b100100 +
b100 ,
13
b10101 6
b0 8
b0 9
#576000
03
#578000
b101000 "
b1 #
b101000 %
b101000 )
b0 *
b101000 +
b0 ,
b101000 .
13
b10110 6
#580000
03
#582000
b10 #
b101100 *
b100 ,
1/
13
b10111 6
#584000
03
#586000
b11 #
b0 *
b0 ,
0/
13
b11000 6
b111010000000000000011000 7
#588000
03
#590000
b100100 !
b11111110 "
b1011111 #
b11111110 )
b11111110 +
13
b1 6
#592000
03
#594000
b1100000 #
13
b10 6
#596000
03
#598000
b1100001 #
13
b11 6
b11110000111001000011110000000011 7
#600000
03
#602000
b1100010 #
b11110000111001000011110000000011 1
13
b100 6
#604000
03
#606000
b11110000 "
b0 #
b11110000 )
b11110100 *
b11110000 +
b100 ,
13
b101 6
#608000
03
#610000
b11110100 "
b1 #
b11110100 %
b11110100 )
b0 *
b11110100 +
b0 ,
b11110100 .
13
b110 6
#612000
03
#614000
b10 #
b11111000 *
b100 ,
1/
13
b111 6
b111100000111100000000000000010 7
#616000
03
#618000
b11 #
b11110 &
b0 *
b0 +
b0 ,
b10 -
0/
13
b1000 6
b111101111010000000010 7
#620000
03
#622000
b11010 #
b10 *
b10 ,
b10 2
13
b1001 6
#624000
03
#626000
b11011 #
1$
b10 %
b1000 *
b1000 ,
b10 .
b1000 2
13
b1010 6
#628000
03
#630000
b0 #
0$
b11111000 *
b11110100 +
b100 ,
13
b1011 6
b10 9
#632000
03
#634000
b11111000 "
b1 #
b11111000 %
b11111000 )
b0 *
b11111000 +
b0 ,
b11111000 .
13
b1100 6
#636000
03
#638000
b10 #
b11111100 *
b100 ,
1/
13
b1101 6
#640000
03
#642000
b11 #
b11111000 *
b0 ,
b11111111111111111111010000000010 -
0/
13
b1110 6
b1101 7
#644000
03
#646000
b100101 #
b1000 *
b0 +
b1000 ,
13
b1111 6
#648000
03
#650000
b100110 #
b1000 %
b10 (
b100000 *
b100000 ,
b10 -
b1000 .
b100000 2
13
b10000 6
#652000
03
#654000
b100111 #
1$
b10 %
b10 *
b10 ,
b11111111111111111111010000000010 -
b100000 .
b10 2
13
b10001 6
#656000
03
#658000
b101000 #
0$
b0 %
b0 *
b0 ,
b10 .
b0 2
13
b10010 6
#660000
03
#662000
b0 #
b11111100 *
b11111000 +
b100 ,
b0 .
13
b10011 6
#664000
03
#666000
b11111100 "
b1 #
b11111100 %
b11111100 )
b0 *
b11111100 +
b10 ,
b11111100 .
13
b10100 6
#668000
03
#670000
b10 #
b100000000 *
b100 ,
1/
13
b10101 6
#672000
03
#674000
b11 #
b0 &
b11111110 *
b10 ,
b1101 -
0/
13
b10110 6
b1111000011100100 7
b0 9
#676000
03
#678000
b10001 #
13
b10111 6
#680000
03
#682000
13
b11000 6
#684000
03
#686000
13
b11001 6
#688000
03
#690000
13
b11010 6
#692000
03
#694000
13
b11011 6
#696000
03
#698000
13
b11100 6
#700000
03
#702000
13
b11101 6
#704000
03
#706000
13
b11110 6
#708000
03
#710000
13
b11111 6
#712000
03
#714000
13
b0 5
b1 6
#716000
03
#718000
13
b10 6
#720000
03
#722000
13
b11 6
#724000
03
#726000
13
b100 6
#728000
03
#730000
13
b101 6
#732000
03
#734000
13
b110 6
#736000
03
#738000
13
b111 6
#740000
03
#742000
13
b1000 6
#744000
03
#746000
13
b1001 6
#748000
03
#750000
13
b1010 6
#752000
03
#754000
13
b1011 6
#756000
03
#758000
13
b1100 6
#760000
03
#762000
13
b1101 6
#764000
03
#766000
13
b1110 6
#768000
03
#770000
13
b1111 6
#772000
03
#774000
13
b10000 6
#776000
03
#778000
13
b10001 6
#780000
03
#782000
13
b10010 6
#784000
03
#786000
13
b10011 6
#788000
03
#790000
13
b10100 6
#792000
03
#794000
13
b10101 6
#796000
03
#798000
13
b10110 6
#800000
03
#802000
13
b10111 6
#804000
03
#806000
13
b11000 6
#808000
03
#810000
13
b11001 6
#812000
03
#814000
13
b11010 6
#816000
03
#818000
13
b11011 6
#820000
03
#822000
13
b11100 6
#824000
03
#826000
13
b11101 6
#828000
03
#830000
13
b11110 6
#832000
03
#834000
13
b11111 6
#836000
03
#838000
13
b1 6
#840000
03
#842000
13
b10 6
#844000
03
#846000
13
b11 6
#848000
03
#850000
13
b100 6
#852000
03
#854000
13
b101 6
#856000
03
#858000
13
b110 6
#860000
03
#862000
13
b111 6
#864000
03
#866000
13
b1000 6
#868000
03
#870000
13
b1001 6
#872000
03
#874000
13
b1010 6
#876000
03
#878000
13
b1011 6
#880000
03
#882000
13
b1100 6
#884000
03
#886000
13
b1101 6
#888000
03
#890000
13
b1110 6
#892000
03
#894000
13
b1111 6
#896000
03
#898000
13
b10000 6
#900000
03
#902000
13
b10001 6
#904000
03
#906000
13
b10010 6
#908000
03
#910000
13
b10011 6
#912000
03
#914000
13
b10100 6
#916000
03
#918000
13
b10101 6
#920000
03
#922000
13
b10110 6
#924000
03
#926000
13
b10111 6
#928000
03
#930000
13
b11000 6
#932000
03
#934000
13
b11001 6
#936000
03
#938000
13
b11010 6
#940000
03
#942000
13
b11011 6
#944000
03
#946000
13
b11100 6
#948000
03
#950000
13
b11101 6
#952000
03
#954000
13
b11110 6
#956000
03
#958000
13
b11111 6
#960000
03
#962000
13
b1 6
#964000
03
#966000
13
b10 6
#968000
03
#970000
13
b11 6
#972000
03
#974000
13
b100 6
#976000
03
#978000
13
b101 6
#980000
03
#982000
13
b110 6
#984000
03
#986000
13
b111 6
#988000
03
#990000
13
b1000 6
#992000
03
#994000
13
b1001 6
#996000
03
#998000
13
b1010 6
