projeto/hardware.vcd
$comment
Copyright (C) 1991-2010 Altera Corporation
Your use of Altera Corporation's design tools, logic functions 
and other software and tools, and its AMPP partner logic 
functions, and any output files from any of the foregoing 
(including device programming or simulation files), and any 
associated documentation or information are expressly subject 
to the terms and conditions of the Altera Program License 
Subscription Agreement, Altera MegaCore Function License 
Agreement, or other applicable license agreement, including, 
without limitation, that your use is for the sole purpose of 
programming logic devices manufactured by Altera and sold by 
Altera or its authorized distributors.  Please refer to the 
applicable agreement for further details.
$end

$date 
  05/03/2018 18:31:38 
$end
$version 
 QUARTUS_VCD_EXPORT 1.0 
$end
$timescale
  1 ps
$end
$scope module cpu $end
$var reg 7 ! Estado[6:0] $end
$var reg 1 " clock $end
$var reg 1 # reset $end
$var reg 32 $ PC[31:0] $end
$var reg 32 % Alu[31:0] $end
$var reg 32 & AluOut[31:0] $end
$var reg 32 ' EntradaULA1[31:0] $end
$var reg 32 ( EntradaULA2[31:0] $end
$var reg 32 ) ExceptionAddress[31:0] $end
$var reg 1 * ExceptionSelector $end
$var reg 1 + IRWrite $end
$var reg 16 , Instr15_0[15:0] $end
$var reg 5 - Instr20_16[4:0] $end
$var reg 5 . Instr25_21[4:0] $end
$var reg 6 / Instr31_26[5:0] $end
$var reg 1 0 LoadMult $end
$var reg 32 1 MemData[31:0] $end
$var reg 2 2 MemParaReg[1:0] $end
$var reg 1 3 RegWrite $end
$var reg 32 4 SaidaA[31:0] $end
$var reg 32 5 WriteDataMem[31:0] $end
$var reg 32 6 WriteDataReg[31:0] $end
$var reg 5 7 WriteRegister[4:0] $end
$var reg 32 8 extensorEShift[31:0] $end
$var reg 32 9 mult_high[31:0] $end
$var reg 32 : mult_low[31:0] $end
$var reg 64 ; resultado_mult[63:0] $end
$var reg 1 < wr $end
$var reg 5 = contador_mult[4:0] $end
$upscope $end
$enddefinitions $end
#0
$dumpvars
b0 !
0"
0#
b0 $
b100 %
b0 &
b0 '
b100 (
b11111110 )
0*
0+
b0 ,
b0 -
b0 .
b0 /
00
b0 1
b0 2
03
b0 4
b0 5
b0 6
b0 7
b0 8
b0 9
b0 :
b0 ;
0<
b0 =
$end
#10000
b1 !
1"
b100 $
b0 %
b100 &
b100 '
b0 (
b100 6
b1 =
#20000
0"
#30000
b10 !
1"
b1000 %
b100 (
1+
b111100000000010000000000000010 1
b10 =
#40000
0"
#50000
b11 !
1"
b0 %
b0 '
b0 (
0+
b10 ,
b1 -
b1111 /
b111100000000100000000000000011 1
b1 7
b11 =
#60000
0"
#70000
b11010 !
1"
b10 %
b10 (
b10 8
b100 =
#80000
0"
#90000
b11011 !
1"
b100000 %
b10 &
b100000 (
13
b10 6
b100000 8
b101 =
#100000
0"
#110000
b0 !
1"
b1000 %
b100 '
b100 (
03
b110 =
#120000
0"
#130000
b1 !
1"
b1000 $
b0 %
b1000 &
b1000 '
b0 (
b1000 6
b111 =
#140000
0"
#150000
b10 !
1"
b1100 %
b100 (
1+
b1000 =
#160000
0"
#170000
b11 !
1"
b100000 %
b0 '
b100000 (
0+
b11 ,
b10 -
b1000100000000000011000 1
b10 7
b1001 =
#180000
0"
#190000
b11010 !
1"
b11 %
b11 (
b11 8
b1010 =
#200000
0"
#210000
b11011 !
1"
b110000 %
b11 &
b110000 (
13
b11 6
b110000 8
b1011 =
#220000
0"
#230000
b0 !
1"
b1100 %
b1000 '
b100 (
03
b1100 =
#240000
0"
#250000
b1 !
1"
b1100 $
b0 %
b1100 &
b1100 '
b0 (
b1100 6
b1101 =
#260000
0"
#270000
b10 !
1"
b10000 %
b100 (
1+
b1110 =
#280000
0"
#290000
b11 !
1"
b0 %
b0 (
0+
b11000 ,
b1 .
b0 /
b1000000010000 1
b0 7
b1111 =
#300000
0"
#310000
b1000110 !
1"
b110010 %
b10 '
b110000 (
10
13
b10 4
b11 5
b10 7
b10000 =
#320000
0"
#330000
b1000111 !
1"
b101 %
b110010 &
b11 (
00
b110010 6
b11 8
b1 =
#340000
0"
#350000
1"
b101 &
b101 6
b10 =
#360000
0"
#370000
1"
b11 =
#380000
0"
#390000
1"
b100 =
#400000
0"
#410000
1"
b101 =
#420000
0"
#430000
1"
b110 =
#440000
0"
#450000
1"
b111 =
#460000
0"
#470000
1"
b1000 =
#480000
0"
#490000
1"
b1001 =
#500000
0"
#510000
1"
b1010 =
#520000
0"
#530000
1"
b1011 =
#540000
0"
#550000
1"
b1100 =
#560000
0"
#570000
1"
b1101 =
#580000
0"
#590000
1"
b1110 =
#600000
0"
#610000
1"
b1111 =
#620000
0"
#630000
1"
b10000 =
#640000
0"
#650000
1"
b10001 =
#660000
0"
#670000
1"
b10010 =
#680000
0"
#690000
1"
b10011 =
#700000
0"
#710000
1"
b10100 =
#720000
0"
#730000
1"
b10101 =
#740000
0"
#750000
1"
b10110 =
#760000
0"
#770000
1"
b10111 =
#780000
0"
#790000
1"
b11000 =
#800000
0"
#810000
1"
b11001 =
#820000
0"
#830000
1"
b11010 =
#840000
0"
#850000
1"
b11011 =
#860000
0"
#870000
1"
b11100 =
#880000
0"
#890000
1"
b11101 =
#900000
0"
#910000
1"
b11110 =
#920000
0"
#930000
1"
b11111 =
#940000
0"
#950000
b0 !
1"
b10000 %
b1100 '
b100 (
03
b110 ;
b1 =
#960000
0"
#970000
b1 !
1"
b10000 $
b0 %
b10000 &
b10000 '
b11 (
b10000 6
b110 :
b10 =
#980000
0"
#990000
b10 !
1"
b10100 %
b100 (
1+
b11 =
