projeto/hardware.vcd
$comment
Copyright (C) 1991-2010 Altera Corporation
Your use of Altera Corporation's design tools, logic functions 
and other software and tools, and its AMPP partner logic 
functions, and any output files from any of the foregoing 
(including device programming or simulation files), and any 
associated documentation or information are expressly subject 
to the terms and conditions of the Altera Program License 
Subscription Agreement, Altera MegaCore Function License 
Agreement, or other applicable license agreement, including, 
without limitation, that your use is for the sole purpose of 
programming logic devices manufactured by Altera and sold by 
Altera or its authorized distributors.  Please refer to the 
applicable agreement for further details.
$end

$date 
  05/04/2018 18:39:33 
$end
$version 
 QUARTUS_VCD_EXPORT 1.0 
$end
$timescale
  1 ps
$end
$scope module cpu $end
$var reg 1 ! clock $end
$var reg 32 " PC[31:0] $end
$var reg 7 # Estado[6:0] $end
$var reg 32 $ Alu[31:0] $end
$var reg 32 % WriteDataMem[31:0] $end
$var reg 32 & WriteDataReg[31:0] $end
$var reg 5 ' WriteRegister[4:0] $end
$var reg 32 ( Address[31:0] $end
$var reg 32 ) MemData[31:0] $end
$var reg 32 * AluOut[31:0] $end
$var reg 32 + EPCOut[31:0] $end
$var reg 32 , EntradaULA1[31:0] $end
$var reg 32 - EntradaULA2[31:0] $end
$var reg 32 . EscritaMem[31:0] $end
$var reg 2 / EscritaSelection[1:0] $end
$var reg 1 0 ExceptionSelector $end
$var reg 1 1 IRWrite $end
$var reg 16 2 Instr15_0[15:0] $end
$var reg 5 3 Instr20_16[4:0] $end
$var reg 5 4 Instr25_21[4:0] $end
$var reg 6 5 Instr31_26[5:0] $end
$var reg 1 6 IouD $end
$var reg 1 7 LoadMult $end
$var reg 32 8 MDR[31:0] $end
$var reg 3 9 MemParaReg[2:0] $end
$var reg 1 : RegWrite $end
$var reg 32 ; SaidaA[31:0] $end
$var reg 32 < extensorEShift[31:0] $end
$var reg 1 = reset $end
$var reg 64 > resultado_mult[63:0] $end
$var reg 1 ? wr $end
$upscope $end
$enddefinitions $end
#0
$dumpvars
0!
b0 "
b0 #
b100 $
b0 %
b0 &
b0 '
b0 (
b0 )
b0 *
b0 +
b0 ,
b100 -
b0 .
b0 /
00
01
b0 2
b0 3
b0 4
b0 5
06
07
b0 8
b0 9
0:
b0 ;
b0 <
0=
b0 >
0?
$end
#10000
1!
b100 "
b1 #
b0 $
b100 &
b100 (
b100 *
b100 ,
b0 -
#20000
0!
#30000
1!
b10 #
b1000 $
b111100000010000000000001011000 )
b100 -
11
#40000
0!
#50000
1!
b11 #
b0 $
b1000 '
b1000000000000000000001000 )
b0 ,
b0 -
01
b1011000 2
b1000 3
b1111 5
#60000
0!
#70000
1!
b11010 #
b1011000 $
b1011000 -
b1011000 <
#80000
0!
#90000
1!
b11011 #
b10110000000 $
b1011000 &
b1011000 *
b10110000000 -
1:
b10110000000 <
#100000
0!
#110000
1!
b0 #
b1000 $
b100 ,
b100 -
0:
#120000
0!
#130000
1!
b1000 "
b1 #
b0 $
b1000 &
b1000 (
b1000 *
b1000 ,
b0 -
#140000
0!
#150000
1!
b10 #
b1100 $
b100 -
11
#160000
0!
#170000
1!
b11 #
b0 $
b0 '
b0 )
b0 ,
b0 -
01
b1000 2
b0 3
b1000 4
b0 5
#180000
0!
#190000
1!
b11100 #
#200000
0!
#210000
1!
b11101 #
b1011000 $
b1011000 ,
b1011000 ;
b101100000000000 <
#220000
0!
#230000
1!
b1011000 "
b0 #
b1011100 $
b1011000 (
b100 -
b1011000000000000000 <
#240000
0!
#250000
1!
b1011100 "
b1 #
b0 $
b1011100 &
b1011100 (
b1011100 *
b1011100 ,
b0 -
#260000
0!
#270000
1!
b10 #
b1100000 $
b100 -
11
#280000
0!
#290000
1!
b11 #
b1011100 $
b0 -
01
b0 2
b0 4
#300000
0!
#310000
1!
b11110 #
b1011000000000000000 $
b0 ,
b1011000000000000000 -
1:
b0 ;
#320000
0!
#330000
1!
b11111 #
b10110000000000000000000 $
b1011000000000000000 &
b1011000000000000000 *
b10110000000000000000000 -
0:
b10110000000000000000000 <
#340000
0!
#350000
1!
b100000 #
b0 $
b10110000000000000000000 &
b10110000000000000000000 *
b0 -
b0 <
#360000
0!
#370000
1!
b100001 #
b0 &
b0 *
b10 9
1:
#380000
0!
#390000
1!
b0 #
b1100000 $
b1011100 ,
b100 -
b0 9
0:
#400000
0!
#410000
1!
b1100000 "
b1 #
b0 $
b1100000 &
b1100000 (
b1100000 *
b1100000 ,
b0 -
#420000
0!
#430000
1!
b10 #
b1100100 $
b100 -
11
#440000
0!
#450000
1!
b11 #
b1100000 $
b0 -
01
#460000
0!
#470000
1!
b11110 #
b0 $
b0 ,
1:
#480000
0!
#490000
1!
b11111 #
b0 &
b0 *
0:
#500000
0!
#510000
1!
b100000 #
#520000
0!
#530000
1!
b100001 #
b10 9
1:
#540000
0!
#550000
1!
b0 #
b1100100 $
b1100000 ,
b100 -
b0 9
0:
#560000
0!
#570000
1!
b1100100 "
b1 #
b0 $
b1100100 &
b1100100 (
b1100100 *
b1100100 ,
b0 -
#580000
0!
#590000
1!
b10 #
b1101000 $
b100 -
11
#600000
0!
#610000
1!
b11 #
b1100100 $
b0 -
01
#620000
0!
#630000
1!
b11110 #
b0 $
b0 ,
1:
#640000
0!
#650000
1!
b11111 #
b0 &
b0 *
0:
#660000
0!
#670000
1!
b100000 #
#680000
0!
#690000
1!
b100001 #
b10 9
1:
#700000
0!
#710000
1!
b0 #
b1101000 $
b1100100 ,
b100 -
b0 9
0:
#720000
0!
#730000
1!
b1101000 "
b1 #
b0 $
b1101000 &
b1101000 (
b1101000 *
b1101000 ,
b0 -
#740000
0!
#750000
1!
b10 #
b1101100 $
b100 -
11
#760000
0!
#770000
1!
b11 #
b1101000 $
b0 -
01
#780000
0!
#790000
1!
b11110 #
b0 $
b0 ,
1:
#800000
0!
#810000
1!
b11111 #
b0 &
b0 *
0:
#820000
0!
#830000
1!
b100000 #
#840000
0!
#850000
1!
b100001 #
b10 9
1:
#860000
0!
#870000
1!
b0 #
b1101100 $
b1101000 ,
b100 -
b0 9
0:
#880000
0!
#890000
1!
b1101100 "
b1 #
b0 $
b1101100 &
b1101100 (
b1101100 *
b1101100 ,
b0 -
#900000
0!
#910000
1!
b10 #
b1110000 $
b100 -
11
#920000
0!
#930000
1!
b11 #
b1101100 $
b0 -
01
#940000
0!
#950000
1!
b11110 #
b0 $
b0 ,
1:
#960000
0!
#970000
1!
b11111 #
b0 &
b0 *
0:
#980000
0!
#990000
1!
b100000 #
