projeto/hardware.vcd
$comment
Copyright (C) 1991-2010 Altera Corporation
Your use of Altera Corporation's design tools, logic functions 
and other software and tools, and its AMPP partner logic 
functions, and any output files from any of the foregoing 
(including device programming or simulation files), and any 
associated documentation or information are expressly subject 
to the terms and conditions of the Altera Program License 
Subscription Agreement, Altera MegaCore Function License 
Agreement, or other applicable license agreement, including, 
without limitation, that your use is for the sole purpose of 
programming logic devices manufactured by Altera and sold by 
Altera or its authorized distributors.  Please refer to the 
applicable agreement for further details.
$end

$date 
  05/04/2018 12:00:45 
$end
$version 
 QUARTUS_VCD_EXPORT 1.0 
$end
$timescale
  1 ps
$end
$scope module cpu $end
$var reg 1 ! clock $end
$var reg 1 " reset $end
$var reg 7 # Estado[6:0] $end
$var reg 32 $ PC[31:0] $end
$var reg 32 % Alu[31:0] $end
$var reg 32 & AluOut[31:0] $end
$var reg 32 ' EntradaULA1[31:0] $end
$var reg 32 ( EntradaULA2[31:0] $end
$var reg 32 ) ExceptionAddress[31:0] $end
$var reg 1 * ExceptionSelector $end
$var reg 1 + IRWrite $end
$var reg 16 , Instr15_0[15:0] $end
$var reg 5 - Instr20_16[4:0] $end
$var reg 5 . Instr25_21[4:0] $end
$var reg 6 / Instr31_26[5:0] $end
$var reg 1 0 LoadMult $end
$var reg 1 1 MaiorULA $end
$var reg 32 2 MemData[31:0] $end
$var reg 3 3 MemParaReg[2:0] $end
$var reg 1 4 MenorULA $end
$var reg 1 5 RegWrite $end
$var reg 32 6 SaidaA[31:0] $end
$var reg 32 7 WriteDataMem[31:0] $end
$var reg 32 8 WriteDataReg[31:0] $end
$var reg 5 9 WriteRegister[4:0] $end
$var reg 5 : contador_mult[4:0] $end
$var reg 32 ; extensorEShift[31:0] $end
$var reg 32 < mult_high[31:0] $end
$var reg 32 = mult_low[31:0] $end
$var reg 64 > resultado_mult[63:0] $end
$var reg 1 ? wr $end
$upscope $end
$enddefinitions $end
#0
$dumpvars
0!
0"
b0 #
b0 $
b100 %
b0 &
b0 '
b100 (
b11111110 )
0*
0+
b0 ,
b0 -
b0 .
b0 /
00
01
b0 2
b0 3
14
05
b0 6
b0 7
b0 8
b0 9
b0 :
b0 ;
b0 <
b0 =
b0 >
0?
$end
#5000
1!
b1 #
b100 $
b0 %
b100 &
b100 '
b0 (
b100 8
b1 :
#10000
0!
#15000
1!
b10 #
b1000 %
b100 (
1+
b11111111111111110000000000001101 2
b10 :
#20000
0!
#25000
1!
b11 #
b0 %
b0 (
0+
b1101 ,
b11111 -
b11111 .
b111111 /
10
b101001000010010000000000001111 2
b11111 9
b11 :
#30000
0!
#35000
1!
b1011111 #
b11111110 $
b11111110 '
00
b1 :
#40000
0!
#45000
1!
b1100000 #
b10 :
#50000
0!
#55000
1!
b1100001 #
b11110000111001001111111111111111 2
b11 :
#60000
0!
#65000
1!
b0 #
b100000010 %
b100 (
b100 :
#70000
0!
#75000
1!
b1 #
b100000010 $
b0 %
b100000010 &
b100000010 '
b0 (
b100000010 8
b101 :
#80000
0!
#85000
1!
b10 #
b100000110 %
b100 (
1+
b110 :
#90000
0!
#95000
1!
b11 #
b0 %
b0 (
0+
b1111111111111111 ,
b100 -
b111 .
b111100 /
10
b11010010100100001001 2
b100 9
b111 :
#100000
0!
#105000
1!
b1011111 #
b11111110 $
b11111110 '
00
b1 :
#110000
0!
#115000
1!
b1100000 #
b10 :
#120000
0!
#125000
1!
b1100001 #
b11110000111001001111111111111111 2
b11 :
#130000
0!
#135000
1!
b0 #
b100000010 %
b100 (
b100 :
#140000
0!
#145000
1!
b1 #
b100000010 $
b0 %
b100000010 '
b0 (
b101 :
#150000
0!
#155000
1!
b10 #
b100000110 %
b100 (
1+
b110 :
#160000
0!
#165000
1!
b11 #
b0 %
b0 (
0+
10
b11010010100100001001 2
b111 :
#170000
0!
#175000
1!
b1011111 #
b11111110 $
b11111110 '
00
b1 :
#180000
0!
#185000
1!
b1100000 #
b10 :
#190000
0!
#195000
1!
b1100001 #
b11110000111001001111111111111111 2
b11 :
#200000
0!
#205000
1!
b0 #
b100000010 %
b100 (
b100 :
#210000
0!
#215000
1!
b1 #
b100000010 $
b0 %
b100000010 '
b0 (
b101 :
#220000
0!
#225000
1!
b10 #
b100000110 %
b100 (
1+
b110 :
#230000
0!
#235000
1!
b11 #
b0 %
b0 (
0+
10
b11010010100100001001 2
b111 :
#240000
0!
#245000
1!
b1011111 #
b11111110 $
b11111110 '
00
b1 :
#250000
0!
#255000
1!
b1100000 #
b10 :
#260000
0!
#265000
1!
b1100001 #
b11110000111001001111111111111111 2
b11 :
#270000
0!
#275000
1!
b0 #
b100000010 %
b100 (
b100 :
#280000
0!
#285000
1!
b1 #
b100000010 $
b0 %
b100000010 '
b0 (
b101 :
#290000
0!
#295000
1!
b10 #
b100000110 %
b100 (
1+
b110 :
#300000
0!
#305000
1!
b11 #
b0 %
b0 (
0+
10
b11010010100100001001 2
b111 :
#310000
0!
#315000
1!
b1011111 #
b11111110 $
b11111110 '
00
b1 :
#320000
0!
#325000
1!
b1100000 #
b10 :
#330000
0!
#335000
1!
b1100001 #
b11110000111001001111111111111111 2
b11 :
#340000
0!
#345000
1!
b0 #
b100000010 %
b100 (
b100 :
#350000
0!
#355000
1!
b1 #
b100000010 $
b0 %
b100000010 '
b0 (
b101 :
#360000
0!
#365000
1!
b10 #
b100000110 %
b100 (
1+
b110 :
#370000
0!
#375000
1!
b11 #
b0 %
b0 (
0+
10
b11010010100100001001 2
b111 :
#380000
0!
#385000
1!
b1011111 #
b11111110 $
b11111110 '
00
b1 :
#390000
0!
#395000
1!
b1100000 #
b10 :
#400000
0!
#405000
1!
b1100001 #
b11110000111001001111111111111111 2
b11 :
#410000
0!
#415000
1!
b0 #
b100000010 %
b100 (
b100 :
#420000
0!
#425000
1!
b1 #
b100000010 $
b0 %
b100000010 '
b0 (
b101 :
#430000
0!
#435000
1!
b10 #
b100000110 %
b100 (
1+
b110 :
#440000
0!
#445000
1!
b11 #
b0 %
b0 (
0+
10
b11010010100100001001 2
b111 :
#450000
0!
#455000
1!
b1011111 #
b11111110 $
b11111110 '
00
b1 :
#460000
0!
#465000
1!
b1100000 #
b10 :
#470000
0!
#475000
1!
b1100001 #
b11110000111001001111111111111111 2
b11 :
#480000
0!
#485000
1!
b0 #
b100000010 %
b100 (
b100 :
#490000
0!
#495000
1!
b1 #
b100000010 $
b0 %
b100000010 '
b0 (
b101 :
#500000
0!
#505000
1!
b10 #
b100000110 %
b100 (
1+
b110 :
#510000
0!
#515000
1!
b11 #
b0 %
b0 (
0+
10
b11010010100100001001 2
b111 :
#520000
0!
#525000
1!
b1011111 #
b11111110 $
b11111110 '
00
b1 :
#530000
0!
#535000
1!
b1100000 #
b10 :
#540000
0!
#545000
1!
b1100001 #
b11110000111001001111111111111111 2
b11 :
#550000
0!
#555000
1!
b0 #
b100000010 %
b100 (
b100 :
#560000
0!
#565000
1!
b1 #
b100000010 $
b0 %
b100000010 '
b0 (
b101 :
#570000
0!
#575000
1!
b10 #
b100000110 %
b100 (
1+
b110 :
#580000
0!
#585000
1!
b11 #
b0 %
b0 (
0+
10
b11010010100100001001 2
b111 :
#590000
0!
#595000
1!
b1011111 #
b11111110 $
b11111110 '
00
b1 :
#600000
0!
#605000
1!
b1100000 #
b10 :
#610000
0!
#615000
1!
b1100001 #
b11110000111001001111111111111111 2
b11 :
#620000
0!
#625000
1!
b0 #
b100000010 %
b100 (
b100 :
#630000
0!
#635000
1!
b1 #
b100000010 $
b0 %
b100000010 '
b0 (
b101 :
#640000
0!
#645000
1!
b10 #
b100000110 %
b100 (
1+
b110 :
#650000
0!
#655000
1!
b11 #
b0 %
b0 (
0+
10
b11010010100100001001 2
b111 :
#660000
0!
#665000
1!
b1011111 #
b11111110 $
b11111110 '
00
b1 :
#670000
0!
#675000
1!
b1100000 #
b10 :
#680000
0!
#685000
1!
b1100001 #
b11110000111001001111111111111111 2
b11 :
#690000
0!
#695000
1!
b0 #
b100000010 %
b100 (
b100 :
#700000
0!
#705000
1!
b1 #
b100000010 $
b0 %
b100000010 '
b0 (
b101 :
#710000
0!
#715000
1!
b10 #
b100000110 %
b100 (
1+
b110 :
#720000
0!
#725000
1!
b11 #
b0 %
b0 (
0+
10
b11010010100100001001 2
b111 :
#730000
0!
#735000
1!
b1011111 #
b11111110 $
b11111110 '
00
b1 :
#740000
0!
#745000
1!
b1100000 #
b10 :
#750000
0!
#755000
1!
b1100001 #
b11110000111001001111111111111111 2
b11 :
#760000
0!
#765000
1!
b0 #
b100000010 %
b100 (
b100 :
#770000
0!
#775000
1!
b1 #
b100000010 $
b0 %
b100000010 '
b0 (
b101 :
#780000
0!
#785000
1!
b10 #
b100000110 %
b100 (
1+
b110 :
#790000
0!
#795000
1!
b11 #
b0 %
b0 (
0+
10
b11010010100100001001 2
b111 :
#800000
0!
#805000
1!
b1011111 #
b11111110 $
b11111110 '
00
b1 :
#810000
0!
#815000
1!
b1100000 #
b10 :
#820000
0!
#825000
1!
b1100001 #
b11110000111001001111111111111111 2
b11 :
#830000
0!
#835000
1!
b0 #
b100000010 %
b100 (
b100 :
#840000
0!
#845000
1!
b1 #
b100000010 $
b0 %
b100000010 '
b0 (
b101 :
#850000
0!
#855000
1!
b10 #
b100000110 %
b100 (
1+
b110 :
#860000
0!
#865000
1!
b11 #
b0 %
b0 (
0+
10
b11010010100100001001 2
b111 :
#870000
0!
#875000
1!
b1011111 #
b11111110 $
b11111110 '
00
b1 :
#880000
0!
#885000
1!
b1100000 #
b10 :
#890000
0!
#895000
1!
b1100001 #
b11110000111001001111111111111111 2
b11 :
#900000
0!
#905000
1!
b0 #
b100000010 %
b100 (
b100 :
#910000
0!
#915000
1!
b1 #
b100000010 $
b0 %
b100000010 '
b0 (
b101 :
#920000
0!
#925000
1!
b10 #
b100000110 %
b100 (
1+
b110 :
#930000
0!
#935000
1!
b11 #
b0 %
b0 (
0+
10
b11010010100100001001 2
b111 :
#940000
0!
#945000
1!
b1011111 #
b11111110 $
b11111110 '
00
b1 :
#950000
0!
#955000
1!
b1100000 #
b10 :
#960000
0!
#965000
1!
b1100001 #
b11110000111001001111111111111111 2
b11 :
#970000
0!
#975000
1!
b0 #
b100000010 %
b100 (
b100 :
#980000
0!
#985000
1!
b1 #
b100000010 $
b0 %
b100000010 '
b0 (
b101 :
#990000
0!
#995000
1!
b10 #
b100000110 %
b100 (
1+
b110 :
