projeto/hardware.vcd
$comment
Copyright (C) 1991-2010 Altera Corporation
Your use of Altera Corporation's design tools, logic functions 
and other software and tools, and its AMPP partner logic 
functions, and any output files from any of the foregoing 
(including device programming or simulation files), and any 
associated documentation or information are expressly subject 
to the terms and conditions of the Altera Program License 
Subscription Agreement, Altera MegaCore Function License 
Agreement, or other applicable license agreement, including, 
without limitation, that your use is for the sole purpose of 
programming logic devices manufactured by Altera and sold by 
Altera or its authorized distributors.  Please refer to the 
applicable agreement for further details.
$end

$date 
  05/04/2018 19:40:12 
$end
$version 
 QUARTUS_VCD_EXPORT 1.0 
$end
$timescale
  1 ps
$end
$scope module cpu $end
$var reg 1 ! clock $end
$var reg 32 " PC[31:0] $end
$var reg 7 # Estado[6:0] $end
$var reg 32 $ Alu[31:0] $end
$var reg 32 % WriteDataMem[31:0] $end
$var reg 32 & WriteDataReg[31:0] $end
$var reg 5 ' WriteRegister[4:0] $end
$var reg 32 ( Address[31:0] $end
$var reg 32 ) MemData[31:0] $end
$var reg 32 * AluOut[31:0] $end
$var reg 32 + EPCOut[31:0] $end
$var reg 32 , EntradaULA1[31:0] $end
$var reg 32 - EntradaULA2[31:0] $end
$var reg 32 . EscritaMem[31:0] $end
$var reg 2 / EscritaSelection[1:0] $end
$var reg 1 0 ExceptionSelector $end
$var reg 1 1 IRWrite $end
$var reg 16 2 Instr15_0[15:0] $end
$var reg 5 3 Instr20_16[4:0] $end
$var reg 5 4 Instr25_21[4:0] $end
$var reg 6 5 Instr31_26[5:0] $end
$var reg 1 6 IouD $end
$var reg 1 7 LoadMult $end
$var reg 32 8 MDR[31:0] $end
$var reg 3 9 MemParaReg[2:0] $end
$var reg 1 : RegWrite $end
$var reg 32 ; SaidaA[31:0] $end
$var reg 32 < extensorEShift[31:0] $end
$var reg 1 = reset $end
$var reg 64 > resultado_mult[63:0] $end
$var reg 1 ? wr $end
$upscope $end
$enddefinitions $end
#0
$dumpvars
0!
b0 "
b0 #
b100 $
b0 %
b0 &
b0 '
b0 (
b0 )
b0 *
b0 +
b0 ,
b100 -
b0 .
b0 /
00
01
b0 2
b0 3
b0 4
b0 5
06
07
b0 8
b0 9
0:
b0 ;
b0 <
0=
b0 >
0?
$end
#10000
1!
b100 "
b1 #
b0 $
b100 &
b100 (
b100 *
b100 ,
b0 -
#20000
0!
#30000
1!
b10 #
b1000 $
b11111111000000000000000001010000 )
b100 -
11
#40000
0!
#50000
1!
b11 #
b0 $
b111110000100000100000 )
b0 -
01
b1010000 2
b11000 4
b111111 5
17
#60000
0!
#70000
1!
b11111110 "
b1011111 #
b11111110 (
b11111110 ,
07
#80000
0!
#90000
1!
b1100000 #
#100000
0!
#110000
1!
b1100001 #
b11110000111001001111111100000000 )
#120000
0!
#130000
1!
b1100010 #
b11110000111001001111111100000000 8
#140000
0!
#150000
1!
b11110000 "
b0 #
b11110100 $
b11110000 (
b11110000 ,
b100 -
#160000
0!
#170000
1!
b11110100 "
b1 #
b0 $
b11110100 &
b11110100 (
b11110100 *
b11110100 ,
b0 -
#180000
0!
#190000
1!
b10 #
b11111000 $
b111100000111100000000000000010 )
b100 -
11
#200000
0!
#210000
1!
b11 #
b0 $
b11110 '
b111101111010000000010 )
b0 ,
b0 -
01
b10 2
b11110 3
b0 4
b1111 5
#220000
0!
#230000
1!
b11010 #
b10 $
b10 -
b10 <
#240000
0!
#250000
1!
b11011 #
b100000 $
b10 &
b10 *
b100000 -
1:
b100000 <
#260000
0!
#270000
1!
b0 #
b11111000 $
b11110100 ,
b100 -
0:
#280000
0!
#290000
1!
b11111000 "
b1 #
b0 $
b11111000 &
b11111000 (
b11111000 *
b11111000 ,
b0 -
#300000
0!
#310000
1!
b10 #
b11111100 $
b100 -
11
#320000
0!
#330000
1!
b11 #
b11111000 $
b1101 )
b0 -
01
b1111010000000010 2
b0 5
#340000
0!
#350000
1!
b100101 #
b100000 $
b0 ,
b100000 -
1:
#360000
0!
#370000
1!
b100110 #
b1000000000 $
b10 %
b100000 &
b100000 *
b1000000000 -
b10 .
0:
b1000000000 <
#380000
0!
#390000
1!
b100111 #
b10 $
b1000000000 &
b1000000000 *
b10 -
b10 <
#400000
0!
#410000
1!
b101000 #
b0 $
b0 &
b10 *
b0 -
b10 9
1:
b0 <
#420000
0!
#430000
1!
b0 #
b11111100 $
b0 *
b11111000 ,
b100 -
b0 9
0:
#440000
0!
#450000
1!
b11111100 "
b1 #
b0 $
b11111100 &
b11111100 (
b11111100 *
b11111100 ,
b10 -
#460000
0!
#470000
1!
b10 #
b100000000 $
b100 -
11
#480000
0!
#490000
1!
b11 #
b11111110 $
b0 '
b1111000011100100 )
b10 -
01
b1101 2
b0 3
#500000
0!
#510000
1!
b10001 #
